car by city api -: November 10, 2017, 11:55 am
Response: {"result":1,"msg":"6.13995249315","details":{"ride_id":"27","user_id":"3","coupon_code":"","pickup_lat":"19.691840049748016","pickup_long":"-99.22585956752299","pickup_location":"Arcangel Abel 8-9, Claustros de San Miguel, 54719 Cuautitl\u00e1n Izcalli, M\u00e9x., Mexico","drop_lat":"19.676625674477137","drop_long":"-99.21278111636639","drop_location":"Av Dr Jorge Jim\u00e9nez Cant\u00fa, San Juan Atlamica, 54729 Cuautitl\u00e1n Izcalli, M\u00e9x., Mexico","ride_date":"Friday, Nov 10","ride_time":"11:55:36","last_time_stamp":"11:55:36 AM","ride_image":"https:maps.googleapis.com\/maps\/api\/staticmap?center=&zoom=12&size=200x200&maptype=roadmap&markers=color:green|label:S|19.691840049748016,-99.22585956752299&markers=color:red|label:D|19.676625674477137,-99.21278111636639&key=AIzaSyAIFe17P91Mfez3T6cqk7hfDSyvMO812Z4","later_date":"","later_time":"","driver_id":"0","car_type_id":"2","ride_type":"1","pem_file":"1","ride_status":"1","payment_status":"0","reason_id":"0","payment_option_id":"1","card_id":"0","ride_platform":"1","ride_admin_status":"1","date":"2017-11-10"}}
drop_lat: 19.676625674477137
drop_long: -99.21278111636639
drop_location: Av Dr Jorge Jiménez Cantú, San Juan Atlamica, 54729 Cuautitlán Izcalli, Méx., Mexico
car_type_id:2
user_id:3
coupon_code :
pickup_lat : 19.691840049748016
pickup_long : -99.22585956752299
pickup_location :Arcangel Abel 8-9, Claustros de San Miguel, 54719 Cuautitlán Izcalli, Méx., Mexico
payment_option_id :1
card_id :
pem_file :1
-------------------------
car by city api -: November 10, 2017, 11:57 am
Response: {"result":1,"msg":"4.31615657032","details":{"ride_id":"28","user_id":"3","coupon_code":"","pickup_lat":"19.67316936806278","pickup_long":"-99.22523863613607","pickup_location":"Calle Terremote 23I, Bellavista, 54710 Cuautitl\u00e1n Izcalli, M\u00e9x., Mexico","drop_lat":"19.6436305046972","drop_long":"-99.20419670641422","drop_location":"Av Dr Jorge Jim\u00e9nez Cant\u00fa 10, Arcos del Alba, 54750 Cuautitl\u00e1n Izcalli, M\u00e9x., Mexico","ride_date":"Friday, Nov 10","ride_time":"11:57:24","last_time_stamp":"11:57:24 AM","ride_image":"https:maps.googleapis.com\/maps\/api\/staticmap?center=&zoom=12&size=200x200&maptype=roadmap&markers=color:green|label:S|19.67316936806278,-99.22523863613607&markers=color:red|label:D|19.6436305046972,-99.20419670641422&key=AIzaSyAIFe17P91Mfez3T6cqk7hfDSyvMO812Z4","later_date":"","later_time":"","driver_id":"0","car_type_id":"2","ride_type":"1","pem_file":"1","ride_status":"1","payment_status":"0","reason_id":"0","payment_option_id":"1","card_id":"0","ride_platform":"1","ride_admin_status":"1","date":"2017-11-10"}}
drop_lat: 19.6436305046972
drop_long: -99.20419670641422
drop_location: Av Dr Jorge Jiménez Cantú 10, Arcos del Alba, 54750 Cuautitlán Izcalli, Méx., Mexico
car_type_id:2
user_id:3
coupon_code :
pickup_lat : 19.67316936806278
pickup_long : -99.22523863613607
pickup_location :Calle Terremote 23I, Bellavista, 54710 Cuautitlán Izcalli, Méx., Mexico
payment_option_id :1
card_id :
pem_file :1
-------------------------
Driver App - Login driver Api: November 10, 2017, 6:24 pm
Response: Array
(
    [driver_id] => 2
    [company_id] => 0
    [commission] => 10
    [driver_name] => Leonardo España Reyes
    [driver_email] => cesar.espana01@gmail.com
    [driver_phone] => 5558718501
    [driver_image] => uploads/driver/1510000767driver_2.jpg
    [driver_password] => yuywib600
    [driver_token] => OVJF4BNmN8LXo2h7
    [total_payment_eraned] => 196
    [company_payment] => 0
    [driver_payment] => 
    [device_id] => eG7TFhCTZy8:APA91bGVfjGtU-bcNCSJb0EaZ2vM5w84_JVNcAc1o360zvDq3nY92ahC-l0UCdeIz2gC-D4V_xhozA-M6FHYdcyaP8bARUatgtav0rpjUnwQM19gxMTjMYwVK0xx_HRkA9zos4rVEu0E
    [flag] => 2
    [rating] => 
    [car_type_id] => 2
    [car_model_id] => 3
    [car_number] => Aaalo4512
    [city_id] => 120
    [register_date] => Monday, Nov 6
    [license] => 
    [license_expire] => 
    [rc] => 
    [rc_expire] => 
    [insurance] => 
    [insurance_expire] => 
    [other_docs] => 
    [driver_bank_name] => 
    [driver_account_number] => 
    [total_card_payment] => 0.00
    [total_cash_payment] => 0.00
    [amount_transfer_pending] => 0.00
    [current_lat] => 19.6732908
    [current_long] => -99.2302913
    [current_location] => ----
    [last_update] => 06:23
    [last_update_date] => Friday, Nov 10, 2017
    [completed_rides] => 5
    [reject_rides] => 14
    [cancelled_rides] => 2
    [login_logout] => 1
    [busy] => 0
    [online_offline] => 1
    [detail_status] => 2
    [payment_transfer] => 0
    [verification_date] => 2017-11-08
    [verification_status] => 0
    [unique_number] => 
    [driver_signup_date] => 2017-11-06
    [driver_status_image] => http://www.apporiotaxi.com/superadminpanel/images/icons8-Error-80.png
    [driver_status_message] => Your Are Reject By Admin
    [total_document_need] => 14
    [driver_admin_status] => 1
    [verfiy_document] => 12
    [city_name] => México
    [city_latitude] => 19.4326077
    [city_longitude] => -99.133208
    [currency] => $
    [distance] => Km
    [city_name_arabic] => 
    [city_name_french] => 
    [city_admin_status] => 1
    [car_type_name] => T-LLEVO ESTÁNDAR
    [car_model_name] => Figo
)

driver_email_phone: cesar.espana01@gmail.com
driver_password: yuywib600
-------------------------
Ride Accept api -: November 10, 2017, 6:26 pm
Response: {"result":1,"msg":"Booking Accepted!!","details":{"ride_id":"29","user_id":"2","coupon_code":"","pickup_lat":"19.6435547","pickup_long":"-99.20025679999998","pickup_location":"Plaza Palomas, Nevado, Jardines del Alba 2, Cuautitl\u00e1n Izcalli, M\u00e9xico","drop_lat":"19.6727639","drop_long":"-99.22922890000001","drop_location":"Avenida del Trabajo, La Aurora, Cuautitl\u00e1n Izcalli, M\u00e9xico","ride_date":"Friday, Nov 10","ride_time":"18:26:30","last_time_stamp":"06:26:44 PM","ride_image":"","later_date":"","later_time":"","driver_id":"2","car_type_id":"2","ride_type":"1","pem_file":"1","ride_status":"3","payment_status":"0","reason_id":"0","payment_option_id":"1","card_id":"0","ride_platform":"2","ride_admin_status":"1","date":"2017-11-10","user_type":"1","user_name":"cesar leonardo espa\ufffda reyes .","user_email":"cesar.espana01@gmail.com","user_phone":"\t+525512706714","user_password":"yuywib600","user_image":"","device_id":"eG7TFhCTZy8:APA91bGVfjGtU-bcNCSJb0EaZ2vM5w84_JVNcAc1o360zvDq3nY92ahC-l0UCdeIz2gC-D4V_xhozA-M6FHYdcyaP8bARUatgtav0rpjUnwQM19gxMTjMYwVK0xx_HRkA9zos4rVEu0E","flag":"2","wallet_money":"0","register_date":"Monday, Nov 6","referral_code":"","free_rides":"0","referral_code_send":"0","phone_verified":"0","email_verified":"0","password_created":"0","facebook_id":"","facebook_mail":"","facebook_image":"","facebook_firstname":"","facebook_lastname":"","google_id":"","google_name":"","google_mail":"","google_image":"","google_token":"","facebook_token":"","token_created":"0","login_logout":"1","rating":"","user_delete":"0","unique_number":"","user_signup_type":"1","user_signup_date":"2017-11-07","status":"1","car_type_name":"T-LLEVO EST\u00c1NDAR","car_name_arabic":"","car_type_name_french":"HATCHBACK","car_type_image":"uploads\/car\/editcar_2.png","cartype_image_size":"","ride_mode":"1","car_admin_status":"1","company_id":"0","commission":"10","driver_name":"Leonardo Espa\u00f1a Reyes","driver_email":"cesar.espana01@gmail.com","driver_phone":"5558718501","driver_image":"uploads\/driver\/1510000767driver_2.jpg","driver_password":"yuywib600","driver_token":"OVJF4BNmN8LXo2h7","total_payment_eraned":"196","company_payment":"0","driver_payment":"","car_model_id":"3","car_number":"Aaalo4512","city_id":"120","license":"","license_expire":"","rc":"","rc_expire":"","insurance":"","insurance_expire":"","other_docs":"","driver_bank_name":"","driver_account_number":"","total_card_payment":"0.00","total_cash_payment":"0.00","amount_transfer_pending":"0.00","current_lat":"19.6732908","current_long":"-99.2302913","current_location":"----","last_update":"18:26","last_update_date":"Friday, Nov 10, 2017","completed_rides":"5","reject_rides":"14","cancelled_rides":"2","busy":"1","online_offline":"1","detail_status":"2","payment_transfer":"0","verification_date":"2017-11-08","verification_status":"0","driver_signup_date":"2017-11-06","driver_status_image":"http:\/\/www.apporiotaxi.com\/superadminpanel\/images\/icons8-Error-80.png","driver_status_message":"Your Are Reject By Admin","total_document_need":"14","driver_admin_status":"1","verfiy_document":"12"}}
ride_id: 29
driver_id: 2
driver_token: OVJF4BNmN8LXo2h7
-------------------------
ride start to road  Api - : November 10, 2017, 6:27 pm
ride_id :29
driver_id: 2
begin_lat: 19.6732874
begin_long: -99.2302908
driver_token: OVJF4BNmN8LXo2h7
-------------------------
ride end Api - : November 10, 2017, 6:28 pm
ride_id: 29
driver_id: 2
end_lat: 19.6732874
end_long: -99.2302902
meter_distance: 0.0
lat_long: 
-------------------------
Ride Accept api -: November 10, 2017, 6:39 pm
Response: {"result":1,"msg":"Booking Accepted!!","details":{"ride_id":"30","user_id":"2","coupon_code":"","pickup_lat":"19.6435547","pickup_long":"-99.20025679999998","pickup_location":"Plaza Palomas, Nevado, Jardines del Alba 2, Cuautitl\u00e1n Izcalli, M\u00e9xico","drop_lat":"19.513532","drop_long":"-99.23318999999998","drop_location":"Pizza Hut Plaza Sat\u00e9lite, Ciudad Sat\u00e9lite, Naucalpan de Ju\u00e1rez, M\u00e9xico","ride_date":"Friday, Nov 10","ride_time":"18:39:26","last_time_stamp":"06:39:45 PM","ride_image":"","later_date":"","later_time":"","driver_id":"2","car_type_id":"2","ride_type":"1","pem_file":"1","ride_status":"3","payment_status":"0","reason_id":"0","payment_option_id":"1","card_id":"0","ride_platform":"2","ride_admin_status":"1","date":"2017-11-10","user_type":"1","user_name":"cesar leonardo espa\ufffda reyes .","user_email":"cesar.espana01@gmail.com","user_phone":"\t+525512706714","user_password":"yuywib600","user_image":"","device_id":"eG7TFhCTZy8:APA91bGVfjGtU-bcNCSJb0EaZ2vM5w84_JVNcAc1o360zvDq3nY92ahC-l0UCdeIz2gC-D4V_xhozA-M6FHYdcyaP8bARUatgtav0rpjUnwQM19gxMTjMYwVK0xx_HRkA9zos4rVEu0E","flag":"2","wallet_money":"0","register_date":"Monday, Nov 6","referral_code":"","free_rides":"0","referral_code_send":"0","phone_verified":"0","email_verified":"0","password_created":"0","facebook_id":"","facebook_mail":"","facebook_image":"","facebook_firstname":"","facebook_lastname":"","google_id":"","google_name":"","google_mail":"","google_image":"","google_token":"","facebook_token":"","token_created":"0","login_logout":"1","rating":"","user_delete":"0","unique_number":"","user_signup_type":"1","user_signup_date":"2017-11-07","status":"1","car_type_name":"T-LLEVO EST\u00c1NDAR","car_name_arabic":"","car_type_name_french":"HATCHBACK","car_type_image":"uploads\/car\/editcar_2.png","cartype_image_size":"","ride_mode":"1","car_admin_status":"1","company_id":"0","commission":"10","driver_name":"Leonardo Espa\u00f1a Reyes","driver_email":"cesar.espana01@gmail.com","driver_phone":"5558718501","driver_image":"uploads\/driver\/1510000767driver_2.jpg","driver_password":"yuywib600","driver_token":"OVJF4BNmN8LXo2h7","total_payment_eraned":"227.5","company_payment":"3.5","driver_payment":"","car_model_id":"3","car_number":"Aaalo4512","city_id":"120","license":"","license_expire":"","rc":"","rc_expire":"","insurance":"","insurance_expire":"","other_docs":"","driver_bank_name":"","driver_account_number":"","total_card_payment":"0.00","total_cash_payment":"0.00","amount_transfer_pending":"0.00","current_lat":"19.6732017","current_long":"-99.229915","current_location":"----","last_update":"18:39","last_update_date":"Friday, Nov 10, 2017","completed_rides":"6","reject_rides":"14","cancelled_rides":"2","busy":"1","online_offline":"1","detail_status":"2","payment_transfer":"0","verification_date":"2017-11-08","verification_status":"0","driver_signup_date":"2017-11-06","driver_status_image":"http:\/\/www.apporiotaxi.com\/superadminpanel\/images\/icons8-Error-80.png","driver_status_message":"Your Are Reject By Admin","total_document_need":"14","driver_admin_status":"1","verfiy_document":"12"}}
ride_id: 30
driver_id: 2
driver_token: OVJF4BNmN8LXo2h7
-------------------------
ride start to road  Api - : November 10, 2017, 6:39 pm
ride_id :30
driver_id: 2
begin_lat: 19.6732908
begin_long: -99.2302913
driver_token: OVJF4BNmN8LXo2h7
-------------------------
ride end Api - : November 10, 2017, 6:39 pm
ride_id: 30
driver_id: 2
end_lat: 19.6732838
end_long: -99.230295
meter_distance: 0.0
lat_long: 
-------------------------
Driver App - Login driver Api: November 10, 2017, 6:52 pm
Response: Array
(
    [driver_id] => 6
    [company_id] => 0
    [commission] => 10
    [driver_name] => motog
    [driver_email] => ucpsysacv@gmail.com
    [driver_phone] => 525569177192
    [driver_image] => uploads/driver/1510188617driver_6.jpg
    [driver_password] => selenia1
    [driver_token] => KXVqzyW7CxvCfPi1
    [total_payment_eraned] => 0
    [company_payment] => 0
    [driver_payment] => 
    [device_id] => eg_oaWPzC3o:APA91bFSwEDrStm0VBHgd4cOaWaMnDvEWP7s4TDg2x7kdRRRXRxYsQu-1POiHpXejGB8ehgB_fLso76v-P0u4ccV1EJQLyTYXx9CdR7VRhT6emWQVcL9EU58CDN51yeJmlQvfFi3IAmb
    [flag] => 2
    [rating] => 
    [car_type_id] => 2
    [car_model_id] => 3
    [car_number] => 2221JGD
    [city_id] => 120
    [register_date] => Thursday, Nov 9
    [license] => 
    [license_expire] => 
    [rc] => 
    [rc_expire] => 
    [insurance] => 
    [insurance_expire] => 
    [other_docs] => 
    [driver_bank_name] => 
    [driver_account_number] => 
    [total_card_payment] => 0.00
    [total_cash_payment] => 0.00
    [amount_transfer_pending] => 0.00
    [current_lat] => 19.6696283
    [current_long] => -99.2291983
    [current_location] => ----
    [last_update] => 06:41
    [last_update_date] => Friday, Nov 10, 2017
    [completed_rides] => 0
    [reject_rides] => 0
    [cancelled_rides] => 0
    [login_logout] => 1
    [busy] => 1
    [online_offline] => 1
    [detail_status] => 2
    [payment_transfer] => 0
    [verification_date] => 2017-11-10
    [verification_status] => 0
    [unique_number] => 
    [driver_signup_date] => 2017-11-09
    [driver_status_image] => http://www.apporiotaxi.com/superadminpanel/images/icons8-Error-80.png
    [driver_status_message] => Your Are Reject By Admin
    [total_document_need] => 14
    [driver_admin_status] => 1
    [verfiy_document] => 12
    [city_name] => México
    [city_latitude] => 19.4326077
    [city_longitude] => -99.133208
    [currency] => $
    [distance] => Km
    [city_name_arabic] => 
    [city_name_french] => 
    [city_admin_status] => 1
    [car_type_name] => T-LLEVO ESTÁNDAR
    [car_model_name] => Figo
)

driver_email_phone: ucpsysacv@gmail.com
driver_password: selenia1
-------------------------
Ride Accept api -: November 10, 2017, 6:55 pm
Response: {"result":1,"msg":"Booking Accepted!!","details":{"ride_id":"31","user_id":"2","coupon_code":"","pickup_lat":"19.6435547","pickup_long":"-99.20025679999998","pickup_location":"Plaza Palomas, Nevado, Jardines del Alba 2, Cuautitl\u00e1n Izcalli, M\u00e9xico","drop_lat":"19.6727639","drop_long":"-99.22922890000001","drop_location":"Avenida del Trabajo, La Aurora, Cuautitl\u00e1n Izcalli, M\u00e9xico","ride_date":"Friday, Nov 10","ride_time":"18:55:29","last_time_stamp":"06:55:35 PM","ride_image":"","later_date":"","later_time":"","driver_id":"2","car_type_id":"2","ride_type":"1","pem_file":"1","ride_status":"3","payment_status":"0","reason_id":"0","payment_option_id":"1","card_id":"0","ride_platform":"2","ride_admin_status":"1","date":"2017-11-10","user_type":"1","user_name":"cesar leonardo espa\ufffda reyes .","user_email":"cesar.espana01@gmail.com","user_phone":"\t+525512706714","user_password":"yuywib600","user_image":"","device_id":"eG7TFhCTZy8:APA91bGVfjGtU-bcNCSJb0EaZ2vM5w84_JVNcAc1o360zvDq3nY92ahC-l0UCdeIz2gC-D4V_xhozA-M6FHYdcyaP8bARUatgtav0rpjUnwQM19gxMTjMYwVK0xx_HRkA9zos4rVEu0E","flag":"2","wallet_money":"0","register_date":"Monday, Nov 6","referral_code":"","free_rides":"0","referral_code_send":"0","phone_verified":"0","email_verified":"0","password_created":"0","facebook_id":"","facebook_mail":"","facebook_image":"","facebook_firstname":"","facebook_lastname":"","google_id":"","google_name":"","google_mail":"","google_image":"","google_token":"","facebook_token":"","token_created":"0","login_logout":"1","rating":"","user_delete":"0","unique_number":"","user_signup_type":"1","user_signup_date":"2017-11-07","status":"1","car_type_name":"T-LLEVO EST\u00c1NDAR","car_name_arabic":"","car_type_name_french":"HATCHBACK","car_type_image":"uploads\/car\/editcar_2.png","cartype_image_size":"","ride_mode":"1","car_admin_status":"1","company_id":"0","commission":"10","driver_name":"Leonardo Espa\u00f1a Reyes","driver_email":"cesar.espana01@gmail.com","driver_phone":"5558718501","driver_image":"uploads\/driver\/1510000767driver_2.jpg","driver_password":"yuywib600","driver_token":"OVJF4BNmN8LXo2h7","total_payment_eraned":"259","company_payment":"7","driver_payment":"","car_model_id":"3","car_number":"Aaalo4512","city_id":"120","license":"","license_expire":"","rc":"","rc_expire":"","insurance":"","insurance_expire":"","other_docs":"","driver_bank_name":"","driver_account_number":"","total_card_payment":"0.00","total_cash_payment":"0.00","amount_transfer_pending":"0.00","current_lat":"19.6732678","current_long":"-99.2302913","current_location":"----","last_update":"18:55","last_update_date":"Friday, Nov 10, 2017","completed_rides":"7","reject_rides":"14","cancelled_rides":"2","busy":"1","online_offline":"1","detail_status":"2","payment_transfer":"0","verification_date":"2017-11-08","verification_status":"0","driver_signup_date":"2017-11-06","driver_status_image":"http:\/\/www.apporiotaxi.com\/superadminpanel\/images\/icons8-Error-80.png","driver_status_message":"Your Are Reject By Admin","total_document_need":"14","driver_admin_status":"1","verfiy_document":"12"}}
ride_id: 31
driver_id: 2
driver_token: OVJF4BNmN8LXo2h7
-------------------------
ride start to road  Api - : November 10, 2017, 6:55 pm
ride_id :31
driver_id: 2
begin_lat: 19.6732908
begin_long: -99.2302913
driver_token: OVJF4BNmN8LXo2h7
-------------------------
ride end Api - : November 10, 2017, 6:55 pm
ride_id: 31
driver_id: 2
end_lat: 19.6732908
end_long: -99.2302913
meter_distance: 0.0
lat_long: 
-------------------------
Driver App - Login driver Api: November 10, 2017, 7:03 pm
Response: Array
(
    [driver_id] => 6
    [company_id] => 0
    [commission] => 10
    [driver_name] => motog
    [driver_email] => ucpsysacv@gmail.com
    [driver_phone] => 525569177192
    [driver_image] => uploads/driver/1510188617driver_6.jpg
    [driver_password] => selenia1
    [driver_token] => dxbeZu8NQSLxgPk3
    [total_payment_eraned] => 0
    [company_payment] => 0
    [driver_payment] => 
    [device_id] => eg_oaWPzC3o:APA91bFSwEDrStm0VBHgd4cOaWaMnDvEWP7s4TDg2x7kdRRRXRxYsQu-1POiHpXejGB8ehgB_fLso76v-P0u4ccV1EJQLyTYXx9CdR7VRhT6emWQVcL9EU58CDN51yeJmlQvfFi3IAmb
    [flag] => 2
    [rating] => 
    [car_type_id] => 2
    [car_model_id] => 3
    [car_number] => 2221JGD
    [city_id] => 120
    [register_date] => Thursday, Nov 9
    [license] => 
    [license_expire] => 
    [rc] => 
    [rc_expire] => 
    [insurance] => 
    [insurance_expire] => 
    [other_docs] => 
    [driver_bank_name] => 
    [driver_account_number] => 
    [total_card_payment] => 0.00
    [total_cash_payment] => 0.00
    [amount_transfer_pending] => 0.00
    [current_lat] => 19.6746613
    [current_long] => -99.2316223
    [current_location] => ----
    [last_update] => 07:02
    [last_update_date] => Friday, Nov 10, 2017
    [completed_rides] => 0
    [reject_rides] => 0
    [cancelled_rides] => 0
    [login_logout] => 1
    [busy] => 1
    [online_offline] => 1
    [detail_status] => 2
    [payment_transfer] => 0
    [verification_date] => 2017-11-10
    [verification_status] => 0
    [unique_number] => 
    [driver_signup_date] => 2017-11-09
    [driver_status_image] => http://www.apporiotaxi.com/superadminpanel/images/icons8-Error-80.png
    [driver_status_message] => Your Are Reject By Admin
    [total_document_need] => 14
    [driver_admin_status] => 1
    [verfiy_document] => 12
    [city_name] => México
    [city_latitude] => 19.4326077
    [city_longitude] => -99.133208
    [currency] => $
    [distance] => Km
    [city_name_arabic] => 
    [city_name_french] => 
    [city_admin_status] => 1
    [car_type_name] => T-LLEVO ESTÁNDAR
    [car_model_name] => Figo
)

driver_email_phone: ucpsysacv@gmail.com
driver_password: selenia1
-------------------------
Driver App - Login driver Api: November 10, 2017, 7:12 pm
Response: Array
(
    [driver_id] => 7
    [company_id] => 1
    [commission] => 0
    [driver_name] => Alberto Android
    [driver_email] => alberto@animala.mx
    [driver_phone] => 5552521911
    [driver_image] => 
    [driver_password] => driver
    [driver_token] => UeQtdR8Lz33zma1F
    [total_payment_eraned] => 0
    [company_payment] => 0
    [driver_payment] => 
    [device_id] => 
    [flag] => 0
    [rating] => 
    [car_type_id] => 4
    [car_model_id] => 11
    [car_number] => 007
    [city_id] => 120
    [register_date] => Friday, Nov 10
    [license] => 
    [license_expire] => 
    [rc] => 
    [rc_expire] => 
    [insurance] => 
    [insurance_expire] => 
    [other_docs] => 
    [driver_bank_name] => 
    [driver_account_number] => 
    [total_card_payment] => 0.00
    [total_cash_payment] => 0.00
    [amount_transfer_pending] => 0.00
    [current_lat] => 
    [current_long] => 
    [current_location] => 
    [last_update] => 
    [last_update_date] => 
    [completed_rides] => 0
    [reject_rides] => 0
    [cancelled_rides] => 0
    [login_logout] => 1
    [busy] => 0
    [online_offline] => 0
    [detail_status] => 2
    [payment_transfer] => 0
    [verification_date] => 2017-11-10
    [verification_status] => 1
    [unique_number] => 
    [driver_signup_date] => 2017-11-10
    [driver_status_image] => http://www.apporiotaxi.com/superadminpanel/images/icons8-Error-80.png
    [driver_status_message] => your document id in under process, You will be notified very soon
    [total_document_need] => 12
    [driver_admin_status] => 1
    [verfiy_document] => 12
    [city_name] => México
    [city_latitude] => 19.4326077
    [city_longitude] => -99.133208
    [currency] => $
    [distance] => Km
    [city_name_arabic] => 
    [city_name_french] => 
    [city_admin_status] => 1
    [car_type_name] => T-LLEVO DE LUJO
    [car_model_name] => Audi Q7
)

driver_email_phone: alberto@animala.mx
driver_password: driver
-------------------------
Ride Accept api -: November 10, 2017, 7:22 pm
Response: {"result":1,"msg":"Booking Accepted!!","details":{"ride_id":"33","user_id":"5","coupon_code":"123456","pickup_lat":"19.4286241","pickup_long":"-99.15708599999999","pickup_location":"Museo de Cera, Londres, Ju\u00e1rez, Ciudad de M\u00e9xico, M\u00e9xico","drop_lat":"19.3486926","drop_long":"-99.16291310000003","drop_location":"Coyoac\u00e1n, Ciudad de M\u00e9xico, M\u00e9xico","ride_date":"Friday, Nov 10","ride_time":"19:22:39","last_time_stamp":"07:22:48 PM","ride_image":"","later_date":"","later_time":"","driver_id":"1","car_type_id":"2","ride_type":"1","pem_file":"1","ride_status":"3","payment_status":"0","reason_id":"0","payment_option_id":"1","card_id":"0","ride_platform":"2","ride_admin_status":"1","date":"2017-11-10","user_type":"1","user_name":"Alberto Android","user_email":"alberto@animala.mx","user_phone":"+525557092577","user_password":"","user_image":"","device_id":"fN9DYjgtI-w:APA91bH7MsmnUL7wsUrL5tzdrE7AHlcvdKlSAESvAIMnAUaNFlNbCw7yQep9NRGTKTQt78Ax6rctVvIuoksj-fwOXFf9pGk-Ym3cm7MbaO9hfDhMe39B_janYuu5Bj_fe8AQ8knKQHZV","flag":"2","wallet_money":"0","register_date":"Thursday, Nov 2","referral_code":"","free_rides":"0","referral_code_send":"0","phone_verified":"0","email_verified":"0","password_created":"0","facebook_id":"","facebook_mail":"","facebook_image":"","facebook_firstname":"","facebook_lastname":"","google_id":"","google_name":"","google_mail":"","google_image":"","google_token":"","facebook_token":"","token_created":"0","login_logout":"1","rating":"","user_delete":"0","unique_number":"","user_signup_type":"1","user_signup_date":"0000-00-00","status":"1","car_type_name":"T-LLEVO EST\u00c1NDAR","car_name_arabic":"","car_type_name_french":"HATCHBACK","car_type_image":"uploads\/car\/editcar_2.png","cartype_image_size":"","ride_mode":"1","car_admin_status":"1","company_id":"0","commission":"0","driver_name":"Guillermo","driver_email":"blemished_lotus@hotmail.com","driver_phone":"5528460207","driver_image":"uploads\/driver\/1509647522driver_1.jpg","driver_password":"HoudyHow","driver_token":"oLNc0C2Ae31wgPLx","total_payment_eraned":"0","company_payment":"0","driver_payment":"","car_model_id":"3","car_number":"887-YAS","city_id":"120","license":"","license_expire":"","rc":"","rc_expire":"","insurance":"","insurance_expire":"","other_docs":"","driver_bank_name":"","driver_account_number":"","total_card_payment":"0.00","total_cash_payment":"0.00","amount_transfer_pending":"0.00","current_lat":"19.3434689","current_long":"-99.1747673","current_location":"----","last_update":"19:22","last_update_date":"Friday, Nov 10, 2017","completed_rides":"0","reject_rides":"0","cancelled_rides":"1","busy":"1","online_offline":"1","detail_status":"2","payment_transfer":"0","verification_date":"2017-11-02","verification_status":"1","driver_signup_date":"2017-11-02","driver_status_image":"http:\/\/www.apporiotaxi.com\/superadminpanel\/images\/icons8-Error-80.png","driver_status_message":"your document id in under process, You will be notified very soon","total_document_need":"14","driver_admin_status":"1","verfiy_document":"14"}}
ride_id: 33
driver_id: 1
driver_token: oLNc0C2Ae31wgPLx
-------------------------
ride start to road  Api - : November 10, 2017, 7:23 pm
ride_id :33
driver_id: 1
begin_lat: 19.3434311
begin_long: -99.1746835
driver_token: oLNc0C2Ae31wgPLx
-------------------------
ride end Api - : November 10, 2017, 7:23 pm
ride_id: 33
driver_id: 1
end_lat: 19.3434311
end_long: -99.1746835
meter_distance: 0.0
lat_long: 
-------------------------
Ride Accept api -: November 10, 2017, 7:28 pm
Response: {"result":1,"msg":"Booking Accepted!!","details":{"ride_id":"34","user_id":"5","coupon_code":"","pickup_lat":"19.4336394","pickup_long":"-99.18713639999999","pickup_location":"Polanco V Secci\u00f3n, Ciudad de M\u00e9xico, M\u00e9xico","drop_lat":"19.3486926","drop_long":"-99.16291310000003","drop_location":"Coyoac\u00e1n, Ciudad de M\u00e9xico, M\u00e9xico","ride_date":"Friday, Nov 10","ride_time":"19:28:05","last_time_stamp":"07:28:19 PM","ride_image":"","later_date":"","later_time":"","driver_id":"7","car_type_id":"4","ride_type":"1","pem_file":"1","ride_status":"3","payment_status":"0","reason_id":"0","payment_option_id":"1","card_id":"0","ride_platform":"2","ride_admin_status":"1","date":"2017-11-10","user_type":"1","user_name":"Alberto Android","user_email":"alberto@animala.mx","user_phone":"+525557092577","user_password":"","user_image":"","device_id":"f2COWHeoMlo:APA91bFaV4XEhpuczq0NuRf8G7f2kX4G0XiT_GptPApGXx1fJT-3QpfIH5lkexduGtRp8ETy83MIWbdCabuae4oFzDwHRhfr7gMO_1DchlsUNJiPJxwpR8CVRxZfDl83X5TORSyqFF3i","flag":"2","wallet_money":"0","register_date":"Friday, Nov 10","referral_code":"","free_rides":"0","referral_code_send":"0","phone_verified":"0","email_verified":"0","password_created":"0","facebook_id":"","facebook_mail":"","facebook_image":"","facebook_firstname":"","facebook_lastname":"","google_id":"","google_name":"","google_mail":"","google_image":"","google_token":"","facebook_token":"","token_created":"0","login_logout":"1","rating":"","user_delete":"0","unique_number":"","user_signup_type":"1","user_signup_date":"0000-00-00","status":"1","car_type_name":"T-LLEVO DE LUJO","car_name_arabic":"","car_type_name_french":"Mini","car_type_image":"uploads\/car\/editcar_4.png","cartype_image_size":"","ride_mode":"1","car_admin_status":"1","company_id":"1","commission":"0","driver_name":"Alberto Android","driver_email":"alberto@animala.mx","driver_phone":"5552521911","driver_image":"","driver_password":"driver","driver_token":"UeQtdR8Lz33zma1F","total_payment_eraned":"0","company_payment":"0","driver_payment":"","car_model_id":"11","car_number":"007","city_id":"120","license":"","license_expire":"","rc":"","rc_expire":"","insurance":"","insurance_expire":"","other_docs":"","driver_bank_name":"","driver_account_number":"","total_card_payment":"0.00","total_cash_payment":"0.00","amount_transfer_pending":"0.00","current_lat":"19.3438906","current_long":"-99.1741587","current_location":"----","last_update":"19:28","last_update_date":"Friday, Nov 10, 2017","completed_rides":"0","reject_rides":"0","cancelled_rides":"0","busy":"1","online_offline":"1","detail_status":"2","payment_transfer":"0","verification_date":"2017-11-10","verification_status":"1","driver_signup_date":"2017-11-10","driver_status_image":"http:\/\/www.apporiotaxi.com\/superadminpanel\/images\/icons8-Error-80.png","driver_status_message":"your document id in under process, You will be notified very soon","total_document_need":"12","driver_admin_status":"1","verfiy_document":"12"}}
ride_id: 34
driver_id: 7
driver_token: UeQtdR8Lz33zma1F
-------------------------
Ride Accept api -: November 10, 2017, 7:32 pm
Response: {"result":1,"msg":"Booking Accepted!!","details":{"ride_id":"35","user_id":"6","coupon_code":"","pickup_lat":"19.6528089","pickup_long":"-99.22313869999999","pickup_location":"Cuautitl\u00e1n Izcalli, M\u00e9xico","drop_lat":"19.4336394","drop_long":"-99.18713639999999","drop_location":"Polanco V Secci\u00f3n, Ciudad de M\u00e9xico, M\u00e9xico","ride_date":"Friday, Nov 10","ride_time":"19:32:27","last_time_stamp":"07:32:36 PM","ride_image":"","later_date":"2017-11-10","later_time":"18 : 30","driver_id":"2","car_type_id":"2","ride_type":"2","pem_file":"1","ride_status":"3","payment_status":"0","reason_id":"0","payment_option_id":"1","card_id":"0","ride_platform":"2","ride_admin_status":"1","date":"2017-11-10","user_type":"1","user_name":"Memo","user_email":"memo@memo.com","user_phone":"+5254545454","user_password":"","user_image":"","device_id":"eG7TFhCTZy8:APA91bGVfjGtU-bcNCSJb0EaZ2vM5w84_JVNcAc1o360zvDq3nY92ahC-l0UCdeIz2gC-D4V_xhozA-M6FHYdcyaP8bARUatgtav0rpjUnwQM19gxMTjMYwVK0xx_HRkA9zos4rVEu0E","flag":"2","wallet_money":"0","register_date":"Monday, Nov 6","referral_code":"","free_rides":"0","referral_code_send":"0","phone_verified":"0","email_verified":"0","password_created":"0","facebook_id":"","facebook_mail":"","facebook_image":"","facebook_firstname":"","facebook_lastname":"","google_id":"","google_name":"","google_mail":"","google_image":"","google_token":"","facebook_token":"","token_created":"0","login_logout":"1","rating":"","user_delete":"0","unique_number":"","user_signup_type":"1","user_signup_date":"0000-00-00","status":"1","car_type_name":"T-LLEVO EST\u00c1NDAR","car_name_arabic":"","car_type_name_french":"HATCHBACK","car_type_image":"uploads\/car\/editcar_2.png","cartype_image_size":"","ride_mode":"1","car_admin_status":"1","company_id":"0","commission":"10","driver_name":"Leonardo Espa\u00f1a Reyes","driver_email":"cesar.espana01@gmail.com","driver_phone":"5558718501","driver_image":"uploads\/driver\/1510000767driver_2.jpg","driver_password":"yuywib600","driver_token":"OVJF4BNmN8LXo2h7","total_payment_eraned":"290.5","company_payment":"0","driver_payment":"","car_model_id":"3","car_number":"Aaalo4512","city_id":"120","license":"","license_expire":"","rc":"","rc_expire":"","insurance":"","insurance_expire":"","other_docs":"","driver_bank_name":"","driver_account_number":"","total_card_payment":"0.00","total_cash_payment":"0.00","amount_transfer_pending":"0.00","current_lat":"19.6732678","current_long":"-99.2302913","current_location":"----","last_update":"19:32","last_update_date":"Friday, Nov 10, 2017","completed_rides":"8","reject_rides":"14","cancelled_rides":"2","busy":"1","online_offline":"1","detail_status":"2","payment_transfer":"0","verification_date":"2017-11-08","verification_status":"0","driver_signup_date":"2017-11-06","driver_status_image":"http:\/\/www.apporiotaxi.com\/superadminpanel\/images\/icons8-Error-80.png","driver_status_message":"Your Are Reject By Admin","total_document_need":"14","driver_admin_status":"1","verfiy_document":"12"}}
ride_id: 35
driver_id: 2
driver_token: OVJF4BNmN8LXo2h7
-------------------------
Driver App - Login driver Api: November 10, 2017, 7:47 pm
Response: Array
(
    [driver_id] => 8
    [company_id] => 1
    [commission] => 0
    [driver_name] => Cesar II
    [driver_email] => cesar@cesar.com
    [driver_phone] => 56565656
    [driver_image] => 
    [driver_password] => cesar
    [driver_token] => xISTur0V7qcTO1Ak
    [total_payment_eraned] => 0
    [company_payment] => 0
    [driver_payment] => 
    [device_id] => 
    [flag] => 0
    [rating] => 
    [car_type_id] => 2
    [car_model_id] => 3
    [car_number] => 345
    [city_id] => 120
    [register_date] => Friday, Nov 10
    [license] => 
    [license_expire] => 
    [rc] => 
    [rc_expire] => 
    [insurance] => 
    [insurance_expire] => 
    [other_docs] => 
    [driver_bank_name] => 
    [driver_account_number] => 
    [total_card_payment] => 0.00
    [total_cash_payment] => 0.00
    [amount_transfer_pending] => 0.00
    [current_lat] => 
    [current_long] => 
    [current_location] => 
    [last_update] => 
    [last_update_date] => 
    [completed_rides] => 0
    [reject_rides] => 0
    [cancelled_rides] => 0
    [login_logout] => 1
    [busy] => 0
    [online_offline] => 0
    [detail_status] => 2
    [payment_transfer] => 0
    [verification_date] => 2017-11-10
    [verification_status] => 1
    [unique_number] => 
    [driver_signup_date] => 2017-11-10
    [driver_status_image] => http://www.apporiotaxi.com/superadminpanel/images/icons8-Error-80.png
    [driver_status_message] => your document id in under process, You will be notified very soon
    [total_document_need] => 12
    [driver_admin_status] => 1
    [verfiy_document] => 12
    [city_name] => México
    [city_latitude] => 19.4326077
    [city_longitude] => -99.133208
    [currency] => $
    [distance] => Km
    [city_name_arabic] => 
    [city_name_french] => 
    [city_admin_status] => 1
    [car_type_name] => T-LLEVO ESTÁNDAR
    [car_model_name] => Figo
)

driver_email_phone: cesar@cesar.com
driver_password: cesar
-------------------------
Ride Accept api -: November 10, 2017, 7:51 pm
Response: {"result":1,"msg":"Booking Accepted!!","details":{"ride_id":"36","user_id":"7","coupon_code":"","pickup_lat":"19.6528089","pickup_long":"-99.22313869999999","pickup_location":"Cuautitl\u00e1n Izcalli, M\u00e9xico","drop_lat":"19.3486926","drop_long":"-99.16291310000003","drop_location":"Coyoac\u00e1n, Ciudad de M\u00e9xico, M\u00e9xico","ride_date":"Friday, Nov 10","ride_time":"19:51:04","last_time_stamp":"07:51:19 PM","ride_image":"","later_date":"","later_time":"","driver_id":"8","car_type_id":"2","ride_type":"1","pem_file":"1","ride_status":"3","payment_status":"0","reason_id":"0","payment_option_id":"1","card_id":"0","ride_platform":"2","ride_admin_status":"1","date":"2017-11-10","user_type":"1","user_name":"beto","user_email":"beto@beto.com","user_phone":"+5257575757","user_password":"","user_image":"","device_id":"eG7TFhCTZy8:APA91bGVfjGtU-bcNCSJb0EaZ2vM5w84_JVNcAc1o360zvDq3nY92ahC-l0UCdeIz2gC-D4V_xhozA-M6FHYdcyaP8bARUatgtav0rpjUnwQM19gxMTjMYwVK0xx_HRkA9zos4rVEu0E","flag":"2","wallet_money":"0","register_date":"Friday, Nov 10","referral_code":"","free_rides":"0","referral_code_send":"0","phone_verified":"0","email_verified":"0","password_created":"0","facebook_id":"","facebook_mail":"","facebook_image":"","facebook_firstname":"","facebook_lastname":"","google_id":"","google_name":"","google_mail":"","google_image":"","google_token":"","facebook_token":"","token_created":"0","login_logout":"1","rating":"","user_delete":"0","unique_number":"","user_signup_type":"1","user_signup_date":"0000-00-00","status":"1","car_type_name":"T-LLEVO EST\u00c1NDAR","car_name_arabic":"","car_type_name_french":"HATCHBACK","car_type_image":"uploads\/car\/editcar_2.png","cartype_image_size":"","ride_mode":"1","car_admin_status":"1","company_id":"1","commission":"0","driver_name":"Cesar II","driver_email":"cesar@cesar.com","driver_phone":"56565656","driver_image":"","driver_password":"cesar","driver_token":"xISTur0V7qcTO1Ak","total_payment_eraned":"0","company_payment":"0","driver_payment":"","car_model_id":"3","car_number":"345","city_id":"120","license":"","license_expire":"","rc":"","rc_expire":"","insurance":"","insurance_expire":"","other_docs":"","driver_bank_name":"","driver_account_number":"","total_card_payment":"0.00","total_cash_payment":"0.00","amount_transfer_pending":"0.00","current_lat":"19.6732678","current_long":"-99.2302913","current_location":"----","last_update":"19:51","last_update_date":"Friday, Nov 10, 2017","completed_rides":"0","reject_rides":"0","cancelled_rides":"0","busy":"1","online_offline":"1","detail_status":"2","payment_transfer":"0","verification_date":"2017-11-10","verification_status":"1","driver_signup_date":"2017-11-10","driver_status_image":"http:\/\/www.apporiotaxi.com\/superadminpanel\/images\/icons8-Error-80.png","driver_status_message":"your document id in under process, You will be notified very soon","total_document_need":"12","driver_admin_status":"1","verfiy_document":"12"}}
ride_id: 36
driver_id: 8
driver_token: xISTur0V7qcTO1Ak
-------------------------
ride start to road  Api - : November 10, 2017, 7:54 pm
ride_id :36
driver_id: 8
begin_lat: 19.6732908
begin_long: -99.2302913
driver_token: xISTur0V7qcTO1Ak
-------------------------
ride end Api - : November 10, 2017, 7:55 pm
ride_id: 36
driver_id: 8
end_lat: 19.6732908
end_long: -99.2302913
meter_distance: 0.0
lat_long: 
-------------------------
Driver App - Login driver Api: November 10, 2017, 7:58 pm
Response: Array
(
    [driver_id] => 7
    [company_id] => 1
    [commission] => 0
    [driver_name] => Alberto Android
    [driver_email] => alberto@animala.mx
    [driver_phone] => 5552521911
    [driver_image] => 
    [driver_password] => driver
    [driver_token] => ph7JGeQNZy4ls546
    [total_payment_eraned] => 0
    [company_payment] => 0
    [driver_payment] => 
    [device_id] => f2COWHeoMlo:APA91bFaV4XEhpuczq0NuRf8G7f2kX4G0XiT_GptPApGXx1fJT-3QpfIH5lkexduGtRp8ETy83MIWbdCabuae4oFzDwHRhfr7gMO_1DchlsUNJiPJxwpR8CVRxZfDl83X5TORSyqFF3i
    [flag] => 2
    [rating] => 
    [car_type_id] => 4
    [car_model_id] => 11
    [car_number] => 007
    [city_id] => 120
    [register_date] => Friday, Nov 10
    [license] => 
    [license_expire] => 
    [rc] => 
    [rc_expire] => 
    [insurance] => 
    [insurance_expire] => 
    [other_docs] => 
    [driver_bank_name] => 
    [driver_account_number] => 
    [total_card_payment] => 0.00
    [total_cash_payment] => 0.00
    [amount_transfer_pending] => 0.00
    [current_lat] => 19.3438906
    [current_long] => -99.1741587
    [current_location] => ----
    [last_update] => 07:41
    [last_update_date] => Friday, Nov 10, 2017
    [completed_rides] => 0
    [reject_rides] => 0
    [cancelled_rides] => 1
    [login_logout] => 1
    [busy] => 0
    [online_offline] => 1
    [detail_status] => 2
    [payment_transfer] => 0
    [verification_date] => 2017-11-10
    [verification_status] => 1
    [unique_number] => 
    [driver_signup_date] => 2017-11-10
    [driver_status_image] => http://www.apporiotaxi.com/superadminpanel/images/icons8-Error-80.png
    [driver_status_message] => your document id in under process, You will be notified very soon
    [total_document_need] => 12
    [driver_admin_status] => 1
    [verfiy_document] => 12
    [city_name] => México
    [city_latitude] => 19.4326077
    [city_longitude] => -99.133208
    [currency] => $
    [distance] => Km
    [city_name_arabic] => 
    [city_name_french] => 
    [city_admin_status] => 1
    [car_type_name] => T-LLEVO DE LUJO
    [car_model_name] => Audi Q7
)

driver_email_phone: alberto@animala.mx
driver_password: driver
-------------------------
