Driver App - Login driver Api: November 9, 2017, 1:09 am
Response: Array
(
    [driver_id] => 6
    [company_id] => 0
    [commission] => 10
    [driver_name] => motog
    [driver_email] => ucpsysacv@gmail.com
    [driver_phone] => 525569177192
    [driver_image] => uploads/driver/1510188617driver_6.jpg
    [driver_password] => selenia1
    [driver_token] => TVVaonfHBwlDwbob
    [total_payment_eraned] => 0
    [company_payment] => 0
    [driver_payment] => 
    [device_id] => 
    [flag] => 0
    [rating] => 
    [car_type_id] => 2
    [car_model_id] => 3
    [car_number] => 2221JGD
    [city_id] => 120
    [register_date] => Thursday, Nov 9
    [license] => 
    [license_expire] => 
    [rc] => 
    [rc_expire] => 
    [insurance] => 
    [insurance_expire] => 
    [other_docs] => 
    [driver_bank_name] => 
    [driver_account_number] => 
    [total_card_payment] => 0.00
    [total_cash_payment] => 0.00
    [amount_transfer_pending] => 0.00
    [current_lat] => 
    [current_long] => 
    [current_location] => 
    [last_update] => 
    [last_update_date] => 
    [completed_rides] => 0
    [reject_rides] => 0
    [cancelled_rides] => 0
    [login_logout] => 1
    [busy] => 0
    [online_offline] => 0
    [detail_status] => 2
    [payment_transfer] => 0
    [verification_date] => 2017-11-09
    [verification_status] => 0
    [unique_number] => 
    [driver_signup_date] => 2017-11-09
    [driver_status_image] => http://www.apporiotaxi.com/superadminpanel/images/icons8-Error-80.png
    [driver_status_message] => Your Are Reject By Admin
    [total_document_need] => 14
    [driver_admin_status] => 1
    [verfiy_document] => 12
    [city_name] => México
    [city_latitude] => 19.4326077
    [city_longitude] => -99.133208
    [currency] => $
    [distance] => Km
    [city_name_arabic] => 
    [city_name_french] => 
    [city_admin_status] => 1
    [car_type_name] => T-LLEVO ESTÁNDAR
    [car_model_name] => Figo
)

driver_email_phone: 525569177192
driver_password: selenia1
-------------------------
car by city api -: November 9, 2017, 1:11 am
Response: {"result":1,"msg":"0.00519696981667","details":{"ride_id":"11","user_id":"25","coupon_code":"","pickup_lat":"19.67346234248833","pickup_long":"-99.23028219491245","pickup_location":"Del Rosal 15, Bellavista, 54710 Cuautitl\u00e1n Izcalli, M\u00e9x., Mexico","drop_lat":"19.69636604345199","drop_long":"-99.22330912202597","drop_location":"Av. Paseos de Izcalli 39, Cofradia San Miguel III, 54715 Cuautitl\u00e1n Izcalli, M\u00e9x., Mexico","ride_date":"Thursday, Nov 9","ride_time":"01:11:34","last_time_stamp":"01:11:34 AM","ride_image":"https:maps.googleapis.com\/maps\/api\/staticmap?center=&zoom=12&size=200x200&maptype=roadmap&markers=color:green|label:S|19.67346234248833,-99.23028219491245&markers=color:red|label:D|19.69636604345199,-99.22330912202597&key=AIzaSyAIFe17P91Mfez3T6cqk7hfDSyvMO812Z4","later_date":"","later_time":"","driver_id":"0","car_type_id":"2","ride_type":"1","pem_file":"1","ride_status":"1","payment_status":"0","reason_id":"0","payment_option_id":"1","card_id":"0","ride_platform":"1","ride_admin_status":"1","date":"2017-11-09"}}
drop_lat: 19.69636604345199
drop_long: -99.22330912202597
drop_location: Av. Paseos de Izcalli 39, Cofradia San Miguel III, 54715 Cuautitlán Izcalli, Méx., Mexico
car_type_id:2
user_id:25
coupon_code :
pickup_lat : 19.67346234248833
pickup_long : -99.23028219491245
pickup_location :Del Rosal 15, Bellavista, 54710 Cuautitlán Izcalli, Méx., Mexico
payment_option_id :1
card_id :
pem_file :1
-------------------------
Ride Accept api -: November 9, 2017, 1:11 am
Response: {"result":1,"msg":"Booking Accepted!!","details":[]}
ride_id: 11
driver_id: 6
driver_token: TVVaonfHBwlDwbob
-------------------------
Ride Accept api -: November 9, 2017, 1:11 am
Response: {"result":0,"msg":"Ride Expire"}
ride_id: 11
driver_id: 6
driver_token: TVVaonfHBwlDwbob
-------------------------
Ride Accept api -: November 9, 2017, 1:11 am
Response: {"result":0,"msg":"Ride Expire"}
ride_id: 11
driver_id: 4
driver_token: bmqrGsJIUYfgX8fl
-------------------------
Ride Accept api -: November 9, 2017, 1:11 am
Response: {"result":0,"msg":"Ride Expire"}
ride_id: 11
driver_id: 5
driver_token: 2zGqD1aOvXoLMrF2
-------------------------
car by city api -: November 9, 2017, 1:12 am
Response: {"result":1,"msg":"0.0394131769491","details":{"ride_id":"12","user_id":"25","coupon_code":"","pickup_lat":"19.67346234248833","pickup_long":"-99.23028219491245","pickup_location":"Del Rosal 15, Bellavista, 54710 Cuautitl\u00e1n Izcalli, M\u00e9x., Mexico","drop_lat":"19.69636604345199","drop_long":"-99.22330912202597","drop_location":"Av. Paseos de Izcalli 39, Cofradia San Miguel III, 54715 Cuautitl\u00e1n Izcalli, M\u00e9x., Mexico","ride_date":"Thursday, Nov 9","ride_time":"01:12:20","last_time_stamp":"01:12:20 AM","ride_image":"https:maps.googleapis.com\/maps\/api\/staticmap?center=&zoom=12&size=200x200&maptype=roadmap&markers=color:green|label:S|19.67346234248833,-99.23028219491245&markers=color:red|label:D|19.69636604345199,-99.22330912202597&key=AIzaSyAIFe17P91Mfez3T6cqk7hfDSyvMO812Z4","later_date":"","later_time":"","driver_id":"0","car_type_id":"2","ride_type":"1","pem_file":"1","ride_status":"1","payment_status":"0","reason_id":"0","payment_option_id":"1","card_id":"0","ride_platform":"1","ride_admin_status":"1","date":"2017-11-09"}}
drop_lat: 19.69636604345199
drop_long: -99.22330912202597
drop_location: Av. Paseos de Izcalli 39, Cofradia San Miguel III, 54715 Cuautitlán Izcalli, Méx., Mexico
car_type_id:2
user_id:25
coupon_code :
pickup_lat : 19.67346234248833
pickup_long : -99.23028219491245
pickup_location :Del Rosal 15, Bellavista, 54710 Cuautitlán Izcalli, Méx., Mexico
payment_option_id :1
card_id :
pem_file :1
-------------------------
Ride Accept api -: November 9, 2017, 1:12 am
Response: {"result":1,"msg":"Booking Accepted!!","details":[]}
ride_id: 12
driver_id: 5
driver_token: 2zGqD1aOvXoLMrF2
-------------------------
Ride Accept api -: November 9, 2017, 1:12 am
Response: {"result":0,"msg":"Ride Expire"}
ride_id: 12
driver_id: 5
driver_token: 2zGqD1aOvXoLMrF2
-------------------------
Ride Accept api -: November 9, 2017, 1:12 am
Response: {"result":0,"msg":"Ride Expire"}
ride_id: 12
driver_id: 4
driver_token: bmqrGsJIUYfgX8fl
-------------------------
car by city api -: November 9, 2017, 1:12 am
Response: {"result":1,"msg":"0.0197690824646","details":{"ride_id":"13","user_id":"25","coupon_code":"","pickup_lat":"19.67346234248833","pickup_long":"-99.23028219491245","pickup_location":"Del Rosal 15, Bellavista, 54710 Cuautitl\u00e1n Izcalli, M\u00e9x., Mexico","drop_lat":"19.69636604345199","drop_long":"-99.22330912202597","drop_location":"Av. Paseos de Izcalli 39, Cofradia San Miguel III, 54715 Cuautitl\u00e1n Izcalli, M\u00e9x., Mexico","ride_date":"Thursday, Nov 9","ride_time":"01:12:56","last_time_stamp":"01:12:56 AM","ride_image":"https:maps.googleapis.com\/maps\/api\/staticmap?center=&zoom=12&size=200x200&maptype=roadmap&markers=color:green|label:S|19.67346234248833,-99.23028219491245&markers=color:red|label:D|19.69636604345199,-99.22330912202597&key=AIzaSyAIFe17P91Mfez3T6cqk7hfDSyvMO812Z4","later_date":"","later_time":"","driver_id":"0","car_type_id":"2","ride_type":"1","pem_file":"1","ride_status":"1","payment_status":"0","reason_id":"0","payment_option_id":"1","card_id":"0","ride_platform":"1","ride_admin_status":"1","date":"2017-11-09"}}
drop_lat: 19.69636604345199
drop_long: -99.22330912202597
drop_location: Av. Paseos de Izcalli 39, Cofradia San Miguel III, 54715 Cuautitlán Izcalli, Méx., Mexico
car_type_id:2
user_id:25
coupon_code :
pickup_lat : 19.67346234248833
pickup_long : -99.23028219491245
pickup_location :Del Rosal 15, Bellavista, 54710 Cuautitlán Izcalli, Méx., Mexico
payment_option_id :1
card_id :
pem_file :1
-------------------------
Ride Accept api -: November 9, 2017, 1:13 am
Response: {"result":1,"msg":"Booking Accepted!!","details":[]}
ride_id: 13
driver_id: 4
driver_token: bmqrGsJIUYfgX8fl
-------------------------
Ride Accept api -: November 9, 2017, 1:13 am
Response: {"result":0,"msg":"Ride Expire"}
ride_id: 13
driver_id: 4
driver_token: bmqrGsJIUYfgX8fl
-------------------------
car by city api -: November 9, 2017, 1:13 am
Response: {"result":1,"msg":"4.67342981316","details":{"ride_id":"14","user_id":"25","coupon_code":"","pickup_lat":"19.67346234248833","pickup_long":"-99.23028219491245","pickup_location":"Del Rosal 15, Bellavista, 54710 Cuautitl\u00e1n Izcalli, M\u00e9x., Mexico","drop_lat":"19.69636604345199","drop_long":"-99.22330912202597","drop_location":"Av. Paseos de Izcalli 39, Cofradia San Miguel III, 54715 Cuautitl\u00e1n Izcalli, M\u00e9x., Mexico","ride_date":"Thursday, Nov 9","ride_time":"01:13:25","last_time_stamp":"01:13:25 AM","ride_image":"https:maps.googleapis.com\/maps\/api\/staticmap?center=&zoom=12&size=200x200&maptype=roadmap&markers=color:green|label:S|19.67346234248833,-99.23028219491245&markers=color:red|label:D|19.69636604345199,-99.22330912202597&key=AIzaSyAIFe17P91Mfez3T6cqk7hfDSyvMO812Z4","later_date":"","later_time":"","driver_id":"0","car_type_id":"2","ride_type":"1","pem_file":"1","ride_status":"1","payment_status":"0","reason_id":"0","payment_option_id":"1","card_id":"0","ride_platform":"1","ride_admin_status":"1","date":"2017-11-09"}}
drop_lat: 19.69636604345199
drop_long: -99.22330912202597
drop_location: Av. Paseos de Izcalli 39, Cofradia San Miguel III, 54715 Cuautitlán Izcalli, Méx., Mexico
car_type_id:2
user_id:25
coupon_code :
pickup_lat : 19.67346234248833
pickup_long : -99.23028219491245
pickup_location :Del Rosal 15, Bellavista, 54710 Cuautitlán Izcalli, Méx., Mexico
payment_option_id :1
card_id :
pem_file :1
-------------------------
car by city api -: November 9, 2017, 1:15 am
Response: {"result":1,"msg":"4.67342981316","details":{"ride_id":"15","user_id":"25","coupon_code":"","pickup_lat":"19.67346234248833","pickup_long":"-99.23028219491245","pickup_location":"Del Rosal 15, Bellavista, 54710 Cuautitl\u00e1n Izcalli, M\u00e9x., Mexico","drop_lat":"19.69636604345199","drop_long":"-99.22330912202597","drop_location":"Av. Paseos de Izcalli 39, Cofradia San Miguel III, 54715 Cuautitl\u00e1n Izcalli, M\u00e9x., Mexico","ride_date":"Thursday, Nov 9","ride_time":"01:15:08","last_time_stamp":"01:15:08 AM","ride_image":"https:maps.googleapis.com\/maps\/api\/staticmap?center=&zoom=12&size=200x200&maptype=roadmap&markers=color:green|label:S|19.67346234248833,-99.23028219491245&markers=color:red|label:D|19.69636604345199,-99.22330912202597&key=AIzaSyAIFe17P91Mfez3T6cqk7hfDSyvMO812Z4","later_date":"","later_time":"","driver_id":"0","car_type_id":"2","ride_type":"1","pem_file":"1","ride_status":"1","payment_status":"0","reason_id":"0","payment_option_id":"1","card_id":"0","ride_platform":"1","ride_admin_status":"1","date":"2017-11-09"}}
drop_lat: 19.69636604345199
drop_long: -99.22330912202597
drop_location: Av. Paseos de Izcalli 39, Cofradia San Miguel III, 54715 Cuautitlán Izcalli, Méx., Mexico
car_type_id:2
user_id:25
coupon_code :
pickup_lat : 19.67346234248833
pickup_long : -99.23028219491245
pickup_location :Del Rosal 15, Bellavista, 54710 Cuautitlán Izcalli, Méx., Mexico
payment_option_id :1
card_id :
pem_file :1
-------------------------
car by city api -: November 9, 2017, 1:16 am
Response: {"result":1,"msg":"4.67342981316","details":{"ride_id":"16","user_id":"25","coupon_code":"","pickup_lat":"19.67346234248833","pickup_long":"-99.23028219491245","pickup_location":"Del Rosal 15, Bellavista, 54710 Cuautitl\u00e1n Izcalli, M\u00e9x., Mexico","drop_lat":"19.69636604345199","drop_long":"-99.22330912202597","drop_location":"Av. Paseos de Izcalli 39, Cofradia San Miguel III, 54715 Cuautitl\u00e1n Izcalli, M\u00e9x., Mexico","ride_date":"Thursday, Nov 9","ride_time":"01:16:10","last_time_stamp":"01:16:10 AM","ride_image":"https:maps.googleapis.com\/maps\/api\/staticmap?center=&zoom=12&size=200x200&maptype=roadmap&markers=color:green|label:S|19.67346234248833,-99.23028219491245&markers=color:red|label:D|19.69636604345199,-99.22330912202597&key=AIzaSyAIFe17P91Mfez3T6cqk7hfDSyvMO812Z4","later_date":"","later_time":"","driver_id":"0","car_type_id":"2","ride_type":"1","pem_file":"1","ride_status":"1","payment_status":"0","reason_id":"0","payment_option_id":"1","card_id":"0","ride_platform":"1","ride_admin_status":"1","date":"2017-11-09"}}
drop_lat: 19.69636604345199
drop_long: -99.22330912202597
drop_location: Av. Paseos de Izcalli 39, Cofradia San Miguel III, 54715 Cuautitlán Izcalli, Méx., Mexico
car_type_id:2
user_id:25
coupon_code :
pickup_lat : 19.67346234248833
pickup_long : -99.23028219491245
pickup_location :Del Rosal 15, Bellavista, 54710 Cuautitlán Izcalli, Méx., Mexico
payment_option_id :1
card_id :
pem_file :1
-------------------------
car by city api -: November 9, 2017, 1:19 am
Response: {"result":1,"msg":"4.67342981316","details":{"ride_id":"17","user_id":"25","coupon_code":"","pickup_lat":"19.67346234248833","pickup_long":"-99.23028219491245","pickup_location":"Del Rosal 15, Bellavista, 54710 Cuautitl\u00e1n Izcalli, M\u00e9x., Mexico","drop_lat":"19.69636604345199","drop_long":"-99.22330912202597","drop_location":"Av. Paseos de Izcalli 39, Cofradia San Miguel III, 54715 Cuautitl\u00e1n Izcalli, M\u00e9x., Mexico","ride_date":"Thursday, Nov 9","ride_time":"01:19:02","last_time_stamp":"01:19:02 AM","ride_image":"https:maps.googleapis.com\/maps\/api\/staticmap?center=&zoom=12&size=200x200&maptype=roadmap&markers=color:green|label:S|19.67346234248833,-99.23028219491245&markers=color:red|label:D|19.69636604345199,-99.22330912202597&key=AIzaSyAIFe17P91Mfez3T6cqk7hfDSyvMO812Z4","later_date":"","later_time":"","driver_id":"0","car_type_id":"2","ride_type":"1","pem_file":"1","ride_status":"1","payment_status":"0","reason_id":"0","payment_option_id":"1","card_id":"0","ride_platform":"1","ride_admin_status":"1","date":"2017-11-09"}}
drop_lat: 19.69636604345199
drop_long: -99.22330912202597
drop_location: Av. Paseos de Izcalli 39, Cofradia San Miguel III, 54715 Cuautitlán Izcalli, Méx., Mexico
car_type_id:2
user_id:25
coupon_code :
pickup_lat : 19.67346234248833
pickup_long : -99.23028219491245
pickup_location :Del Rosal 15, Bellavista, 54710 Cuautitlán Izcalli, Méx., Mexico
payment_option_id :1
card_id :
pem_file :1
-------------------------
car by city api -: November 9, 2017, 1:20 am
Response: {"result":1,"msg":"4.64925392829","details":{"ride_id":"18","user_id":"3","coupon_code":"","pickup_lat":"19.6748416513101","pickup_long":"-99.22815889120102","pickup_location":"Del Rosal 7A, Bellavista, 54710 Cuautitl\u00e1n Izcalli, M\u00e9x., Mexico","drop_lat":"19.696155498249983","drop_long":"-99.22321390360594","drop_location":"Av. Paseos de Izcalli 3, Urbi Quinta Montecarlo, 54715 Cuautitl\u00e1n Izcalli, M\u00e9x., Mexico","ride_date":"Thursday, Nov 9","ride_time":"01:20:43","last_time_stamp":"01:20:43 AM","ride_image":"https:maps.googleapis.com\/maps\/api\/staticmap?center=&zoom=12&size=200x200&maptype=roadmap&markers=color:green|label:S|19.6748416513101,-99.22815889120102&markers=color:red|label:D|19.696155498249983,-99.22321390360594&key=AIzaSyAIFe17P91Mfez3T6cqk7hfDSyvMO812Z4","later_date":"","later_time":"","driver_id":"0","car_type_id":"2","ride_type":"1","pem_file":"1","ride_status":"1","payment_status":"0","reason_id":"0","payment_option_id":"1","card_id":"0","ride_platform":"1","ride_admin_status":"1","date":"2017-11-09"}}
drop_lat: 19.696155498249983
drop_long: -99.22321390360594
drop_location: Av. Paseos de Izcalli 3, Urbi Quinta Montecarlo, 54715 Cuautitlán Izcalli, Méx., Mexico
car_type_id:2
user_id:3
coupon_code :
pickup_lat : 19.6748416513101
pickup_long : -99.22815889120102
pickup_location :Del Rosal 7A, Bellavista, 54710 Cuautitlán Izcalli, Méx., Mexico
payment_option_id :1
card_id :
pem_file :1
-------------------------
car by city api -: November 9, 2017, 2:39 am
Response: {"result":1,"msg":"5.17339693124","details":{"ride_id":"19","user_id":"3","coupon_code":"","pickup_lat":"19.68709200656913","pickup_long":"-99.21264298260212","pickup_location":"Avenida Huehuetoca 352c, Bosques de la Hacienda, 54768 Cuautitl\u00e1n Izcalli, M\u00e9x., Mexico","drop_lat":"19.68844720671065","drop_long":"-99.18668121099472","drop_location":"A Teoloyucan 932, Ejido el Socoro, 54840 Cuautitl\u00e1n Izcalli, M\u00e9x., Mexico","ride_date":"Thursday, Nov 9","ride_time":"02:39:13","last_time_stamp":"02:39:13 AM","ride_image":"https:maps.googleapis.com\/maps\/api\/staticmap?center=&zoom=12&size=200x200&maptype=roadmap&markers=color:green|label:S|19.68709200656913,-99.21264298260212&markers=color:red|label:D|19.68844720671065,-99.18668121099472&key=AIzaSyAIFe17P91Mfez3T6cqk7hfDSyvMO812Z4","later_date":"","later_time":"","driver_id":"0","car_type_id":"2","ride_type":"1","pem_file":"1","ride_status":"1","payment_status":"0","reason_id":"0","payment_option_id":"1","card_id":"0","ride_platform":"1","ride_admin_status":"1","date":"2017-11-09"}}
drop_lat: 19.68844720671065
drop_long: -99.18668121099472
drop_location: A Teoloyucan 932, Ejido el Socoro, 54840 Cuautitlán Izcalli, Méx., Mexico
car_type_id:2
user_id:3
coupon_code :
pickup_lat : 19.68709200656913
pickup_long : -99.21264298260212
pickup_location :Avenida Huehuetoca 352c, Bosques de la Hacienda, 54768 Cuautitlán Izcalli, Méx., Mexico
payment_option_id :1
card_id :
pem_file :1
-------------------------
car by city api -: November 9, 2017, 2:40 am
Response: {"result":1,"msg":"5.17339693124","details":{"ride_id":"20","user_id":"3","coupon_code":"","pickup_lat":"19.68709200656913","pickup_long":"-99.21264298260212","pickup_location":"Avenida Huehuetoca 352c, Bosques de la Hacienda, 54768 Cuautitl\u00e1n Izcalli, M\u00e9x., Mexico","drop_lat":"19.68844720671065","drop_long":"-99.18668121099472","drop_location":"A Teoloyucan 932, Ejido el Socoro, 54840 Cuautitl\u00e1n Izcalli, M\u00e9x., Mexico","ride_date":"Thursday, Nov 9","ride_time":"02:40:00","last_time_stamp":"02:40:00 AM","ride_image":"https:maps.googleapis.com\/maps\/api\/staticmap?center=&zoom=12&size=200x200&maptype=roadmap&markers=color:green|label:S|19.68709200656913,-99.21264298260212&markers=color:red|label:D|19.68844720671065,-99.18668121099472&key=AIzaSyAIFe17P91Mfez3T6cqk7hfDSyvMO812Z4","later_date":"","later_time":"","driver_id":"0","car_type_id":"2","ride_type":"1","pem_file":"1","ride_status":"1","payment_status":"0","reason_id":"0","payment_option_id":"1","card_id":"0","ride_platform":"1","ride_admin_status":"1","date":"2017-11-09"}}
drop_lat: 19.68844720671065
drop_long: -99.18668121099472
drop_location: A Teoloyucan 932, Ejido el Socoro, 54840 Cuautitlán Izcalli, Méx., Mexico
car_type_id:2
user_id:3
coupon_code :
pickup_lat : 19.68709200656913
pickup_long : -99.21264298260212
pickup_location :Avenida Huehuetoca 352c, Bosques de la Hacienda, 54768 Cuautitlán Izcalli, Méx., Mexico
payment_option_id :1
card_id :
pem_file :1
-------------------------
car by city api -: November 9, 2017, 2:57 am
Response: {"result":1,"msg":"5.17339693124","details":{"ride_id":"21","user_id":"3","coupon_code":"","pickup_lat":"19.68709200656913","pickup_long":"-99.21264298260212","pickup_location":"Avenida Huehuetoca 352c, Bosques de la Hacienda, 54768 Cuautitl\u00e1n Izcalli, M\u00e9x., Mexico","drop_lat":"19.68844720671065","drop_long":"-99.18668121099472","drop_location":"A Teoloyucan 932, Ejido el Socoro, 54840 Cuautitl\u00e1n Izcalli, M\u00e9x., Mexico","ride_date":"Thursday, Nov 9","ride_time":"02:57:50","last_time_stamp":"02:57:50 AM","ride_image":"https:maps.googleapis.com\/maps\/api\/staticmap?center=&zoom=12&size=200x200&maptype=roadmap&markers=color:green|label:S|19.68709200656913,-99.21264298260212&markers=color:red|label:D|19.68844720671065,-99.18668121099472&key=AIzaSyAIFe17P91Mfez3T6cqk7hfDSyvMO812Z4","later_date":"","later_time":"","driver_id":"0","car_type_id":"2","ride_type":"1","pem_file":"1","ride_status":"1","payment_status":"0","reason_id":"0","payment_option_id":"1","card_id":"0","ride_platform":"1","ride_admin_status":"1","date":"2017-11-09"}}
drop_lat: 19.68844720671065
drop_long: -99.18668121099472
drop_location: A Teoloyucan 932, Ejido el Socoro, 54840 Cuautitlán Izcalli, Méx., Mexico
car_type_id:2
user_id:3
coupon_code :
pickup_lat : 19.68709200656913
pickup_long : -99.21264298260212
pickup_location :Avenida Huehuetoca 352c, Bosques de la Hacienda, 54768 Cuautitlán Izcalli, Méx., Mexico
payment_option_id :1
card_id :
pem_file :1
-------------------------
car by city api -: November 9, 2017, 3:36 am
Response: {"result":1,"msg":"5.27325954812","details":{"ride_id":"22","user_id":"25","coupon_code":"","pickup_lat":"19.687140620981722","pickup_long":"-99.21597562730312","pickup_location":"Avenida Huehuetoca 18, Bosques de Hacienda, 54768 Cuautitl\u00e1n Izcalli, M\u00e9x., Mexico","drop_lat":"19.658735610438818","drop_long":"-99.20679207891226","drop_location":"Violetas 10, San Isidro, 54730 Cuautitl\u00e1n Izcalli, M\u00e9x., Mexico","ride_date":"Thursday, Nov 9","ride_time":"03:36:41","last_time_stamp":"03:36:41 AM","ride_image":"https:maps.googleapis.com\/maps\/api\/staticmap?center=&zoom=12&size=200x200&maptype=roadmap&markers=color:green|label:S|19.687140620981722,-99.21597562730312&markers=color:red|label:D|19.658735610438818,-99.20679207891226&key=AIzaSyAIFe17P91Mfez3T6cqk7hfDSyvMO812Z4","later_date":"","later_time":"","driver_id":"0","car_type_id":"2","ride_type":"1","pem_file":"1","ride_status":"1","payment_status":"0","reason_id":"0","payment_option_id":"1","card_id":"0","ride_platform":"1","ride_admin_status":"1","date":"2017-11-09"}}
drop_lat: 19.658735610438818
drop_long: -99.20679207891226
drop_location: Violetas 10, San Isidro, 54730 Cuautitlán Izcalli, Méx., Mexico
car_type_id:2
user_id:25
coupon_code :
pickup_lat : 19.687140620981722
pickup_long : -99.21597562730312
pickup_location :Avenida Huehuetoca 18, Bosques de Hacienda, 54768 Cuautitlán Izcalli, Méx., Mexico
payment_option_id :1
card_id :
pem_file :1
-------------------------
car by city api -: November 9, 2017, 3:38 am
Response: {"result":1,"msg":"5.27325954812","details":{"ride_id":"23","user_id":"25","coupon_code":"","pickup_lat":"19.687140620981722","pickup_long":"-99.21597562730312","pickup_location":"Avenida Huehuetoca 18, Bosques de Hacienda, 54768 Cuautitl\u00e1n Izcalli, M\u00e9x., Mexico","drop_lat":"19.658735610438818","drop_long":"-99.20679207891226","drop_location":"Violetas 10, San Isidro, 54730 Cuautitl\u00e1n Izcalli, M\u00e9x., Mexico","ride_date":"Thursday, Nov 9","ride_time":"03:38:58","last_time_stamp":"03:38:58 AM","ride_image":"https:maps.googleapis.com\/maps\/api\/staticmap?center=&zoom=12&size=200x200&maptype=roadmap&markers=color:green|label:S|19.687140620981722,-99.21597562730312&markers=color:red|label:D|19.658735610438818,-99.20679207891226&key=AIzaSyAIFe17P91Mfez3T6cqk7hfDSyvMO812Z4","later_date":"","later_time":"","driver_id":"0","car_type_id":"2","ride_type":"1","pem_file":"1","ride_status":"1","payment_status":"0","reason_id":"0","payment_option_id":"1","card_id":"0","ride_platform":"1","ride_admin_status":"1","date":"2017-11-09"}}
drop_lat: 19.658735610438818
drop_long: -99.20679207891226
drop_location: Violetas 10, San Isidro, 54730 Cuautitlán Izcalli, Méx., Mexico
car_type_id:2
user_id:25
coupon_code :
pickup_lat : 19.687140620981722
pickup_long : -99.21597562730312
pickup_location :Avenida Huehuetoca 18, Bosques de Hacienda, 54768 Cuautitlán Izcalli, Méx., Mexico
payment_option_id :1
card_id :
pem_file :1
-------------------------
car by city api -: November 9, 2017, 3:33 pm
Response: {"result":1,"msg":"1.21235209577","details":{"ride_id":"24","user_id":"25","coupon_code":"","pickup_lat":"19.651600496786944","pickup_long":"-99.2061161622405","pickup_location":"Temoaya 55, Centro Urbano, 54750 Cuautitl\u00e1n Izcalli, M\u00e9x., Mexico","drop_lat":"19.589886440329767","drop_long":"-99.19091507792473","drop_location":"Pensamiento 2, Sta Maria Guadalupe, 54769 Cuautitl\u00e1n Izcalli, M\u00e9x., Mexico","ride_date":"Thursday, Nov 9","ride_time":"15:33:22","last_time_stamp":"03:33:22 PM","ride_image":"https:maps.googleapis.com\/maps\/api\/staticmap?center=&zoom=12&size=200x200&maptype=roadmap&markers=color:green|label:S|19.651600496786944,-99.2061161622405&markers=color:red|label:D|19.589886440329767,-99.19091507792473&key=AIzaSyAIFe17P91Mfez3T6cqk7hfDSyvMO812Z4","later_date":"","later_time":"","driver_id":"0","car_type_id":"2","ride_type":"1","pem_file":"1","ride_status":"1","payment_status":"0","reason_id":"0","payment_option_id":"1","card_id":"0","ride_platform":"1","ride_admin_status":"1","date":"2017-11-09"}}
drop_lat: 19.589886440329767
drop_long: -99.19091507792473
drop_location: Pensamiento 2, Sta Maria Guadalupe, 54769 Cuautitlán Izcalli, Méx., Mexico
car_type_id:2
user_id:25
coupon_code :
pickup_lat : 19.651600496786944
pickup_long : -99.2061161622405
pickup_location :Temoaya 55, Centro Urbano, 54750 Cuautitlán Izcalli, Méx., Mexico
payment_option_id :1
card_id :
pem_file :1
-------------------------
car by city api -: November 9, 2017, 3:41 pm
Response: {"result":1,"msg":"1.21235209577","details":{"ride_id":"25","user_id":"25","coupon_code":"","pickup_lat":"19.651600496786944","pickup_long":"-99.2061161622405","pickup_location":"Temoaya 55, Centro Urbano, 54750 Cuautitl\u00e1n Izcalli, M\u00e9x., Mexico","drop_lat":"19.589886440329767","drop_long":"-99.19091507792473","drop_location":"Pensamiento 2, Sta Maria Guadalupe, 54769 Cuautitl\u00e1n Izcalli, M\u00e9x., Mexico","ride_date":"Thursday, Nov 9","ride_time":"15:41:38","last_time_stamp":"03:41:38 PM","ride_image":"https:maps.googleapis.com\/maps\/api\/staticmap?center=&zoom=12&size=200x200&maptype=roadmap&markers=color:green|label:S|19.651600496786944,-99.2061161622405&markers=color:red|label:D|19.589886440329767,-99.19091507792473&key=AIzaSyAIFe17P91Mfez3T6cqk7hfDSyvMO812Z4","later_date":"","later_time":"","driver_id":"0","car_type_id":"2","ride_type":"1","pem_file":"1","ride_status":"1","payment_status":"0","reason_id":"0","payment_option_id":"1","card_id":"0","ride_platform":"1","ride_admin_status":"1","date":"2017-11-09"}}
drop_lat: 19.589886440329767
drop_long: -99.19091507792473
drop_location: Pensamiento 2, Sta Maria Guadalupe, 54769 Cuautitlán Izcalli, Méx., Mexico
car_type_id:2
user_id:25
coupon_code :
pickup_lat : 19.651600496786944
pickup_long : -99.2061161622405
pickup_location :Temoaya 55, Centro Urbano, 54750 Cuautitlán Izcalli, Méx., Mexico
payment_option_id :1
card_id :
pem_file :1
-------------------------
Driver App - Login driver Api: November 9, 2017, 8:33 pm
Response: Array
(
    [driver_id] => 1
    [company_id] => 0
    [commission] => 0
    [driver_name] => Guillermo
    [driver_email] => blemished_lotus@hotmail.com
    [driver_phone] => 00000000
    [driver_image] => uploads/driver/1509647522driver_1.jpg
    [driver_password] => HoudyHow
    [driver_token] => Plb64FXabYlaPnap
    [total_payment_eraned] => 0
    [company_payment] => 0
    [driver_payment] => 
    [device_id] => fN9DYjgtI-w:APA91bH7MsmnUL7wsUrL5tzdrE7AHlcvdKlSAESvAIMnAUaNFlNbCw7yQep9NRGTKTQt78Ax6rctVvIuoksj-fwOXFf9pGk-Ym3cm7MbaO9hfDhMe39B_janYuu5Bj_fe8AQ8knKQHZV
    [flag] => 2
    [rating] => 
    [car_type_id] => 2
    [car_model_id] => 3
    [car_number] => 887-YAS
    [city_id] => 120
    [register_date] => Thursday, Nov 2
    [license] => 
    [license_expire] => 
    [rc] => 
    [rc_expire] => 
    [insurance] => 
    [insurance_expire] => 
    [other_docs] => 
    [driver_bank_name] => 
    [driver_account_number] => 
    [total_card_payment] => 0.00
    [total_cash_payment] => 0.00
    [amount_transfer_pending] => 0.00
    [current_lat] => 19.3435037
    [current_long] => -99.1747543
    [current_location] => ----
    [last_update] => 08:31
    [last_update_date] => Thursday, Nov 9, 2017
    [completed_rides] => 0
    [reject_rides] => 0
    [cancelled_rides] => 0
    [login_logout] => 1
    [busy] => 0
    [online_offline] => 2
    [detail_status] => 2
    [payment_transfer] => 0
    [verification_date] => 2017-11-02
    [verification_status] => 1
    [unique_number] => 
    [driver_signup_date] => 2017-11-02
    [driver_status_image] => http://www.apporiotaxi.com/superadminpanel/images/icons8-Error-80.png
    [driver_status_message] => your document id in under process, You will be notified very soon
    [total_document_need] => 14
    [driver_admin_status] => 1
    [verfiy_document] => 14
    [city_name] => México
    [city_latitude] => 19.4326077
    [city_longitude] => -99.133208
    [currency] => $
    [distance] => Km
    [city_name_arabic] => 
    [city_name_french] => 
    [city_admin_status] => 1
    [car_type_name] => T-LLEVO ESTÁNDAR
    [car_model_name] => Figo
)

driver_email_phone: blemished_lotus@hotmail.com
driver_password: HoudyHow
-------------------------
Driver App - Login driver Api: November 9, 2017, 8:34 pm
Response: Array
(
    [driver_id] => 1
    [company_id] => 0
    [commission] => 0
    [driver_name] => Guillermo
    [driver_email] => blemished_lotus@hotmail.com
    [driver_phone] => 5528460207
    [driver_image] => uploads/driver/1509647522driver_1.jpg
    [driver_password] => HoudyHow
    [driver_token] => oLNc0C2Ae31wgPLx
    [total_payment_eraned] => 0
    [company_payment] => 0
    [driver_payment] => 
    [device_id] => fN9DYjgtI-w:APA91bH7MsmnUL7wsUrL5tzdrE7AHlcvdKlSAESvAIMnAUaNFlNbCw7yQep9NRGTKTQt78Ax6rctVvIuoksj-fwOXFf9pGk-Ym3cm7MbaO9hfDhMe39B_janYuu5Bj_fe8AQ8knKQHZV
    [flag] => 2
    [rating] => 
    [car_type_id] => 2
    [car_model_id] => 3
    [car_number] => 887-YAS
    [city_id] => 120
    [register_date] => Thursday, Nov 2
    [license] => 
    [license_expire] => 
    [rc] => 
    [rc_expire] => 
    [insurance] => 
    [insurance_expire] => 
    [other_docs] => 
    [driver_bank_name] => 
    [driver_account_number] => 
    [total_card_payment] => 0.00
    [total_cash_payment] => 0.00
    [amount_transfer_pending] => 0.00
    [current_lat] => 19.3434887
    [current_long] => -99.1747559
    [current_location] => ----
    [last_update] => 08:34
    [last_update_date] => Thursday, Nov 9, 2017
    [completed_rides] => 0
    [reject_rides] => 0
    [cancelled_rides] => 0
    [login_logout] => 1
    [busy] => 0
    [online_offline] => 2
    [detail_status] => 2
    [payment_transfer] => 0
    [verification_date] => 2017-11-02
    [verification_status] => 1
    [unique_number] => 
    [driver_signup_date] => 2017-11-02
    [driver_status_image] => http://www.apporiotaxi.com/superadminpanel/images/icons8-Error-80.png
    [driver_status_message] => your document id in under process, You will be notified very soon
    [total_document_need] => 14
    [driver_admin_status] => 1
    [verfiy_document] => 14
    [city_name] => México
    [city_latitude] => 19.4326077
    [city_longitude] => -99.133208
    [currency] => $
    [distance] => Km
    [city_name_arabic] => 
    [city_name_french] => 
    [city_admin_status] => 1
    [car_type_name] => T-LLEVO ESTÁNDAR
    [car_model_name] => Figo
)

driver_email_phone: 5528460207
driver_password: HoudyHow
-------------------------
car by city api -: November 9, 2017, 8:35 pm
Response: {"result":1,"msg":"33.2898611208","details":{"ride_id":"26","user_id":"1","coupon_code":"","pickup_lat":"19.34357683383541","pickup_long":"-99.17422603815793","pickup_location":"Calle Prol. Zaragoza 173, Romero de Terreros, 04310 Ciudad de M\u00e9xico, CDMX, Mexico","drop_lat":"19.423134599999994","drop_long":"-99.1758022","drop_location":"Centro de Cultura Digital","ride_date":"Thursday, Nov 9","ride_time":"20:35:28","last_time_stamp":"08:35:28 PM","ride_image":"https:maps.googleapis.com\/maps\/api\/staticmap?center=&zoom=12&size=200x200&maptype=roadmap&markers=color:green|label:S|19.34357683383541,-99.17422603815793&markers=color:red|label:D|19.423134599999994,-99.1758022&key=AIzaSyAIFe17P91Mfez3T6cqk7hfDSyvMO812Z4","later_date":"","later_time":"","driver_id":"0","car_type_id":"2","ride_type":"1","pem_file":"1","ride_status":"1","payment_status":"0","reason_id":"0","payment_option_id":"1","card_id":"0","ride_platform":"1","ride_admin_status":"1","date":"2017-11-09"}}
drop_lat: 19.423134599999994
drop_long: -99.1758022
drop_location: Centro de Cultura Digital
car_type_id:2
user_id:1
coupon_code :
pickup_lat : 19.34357683383541
pickup_long : -99.17422603815793
pickup_location :Calle Prol. Zaragoza 173, Romero de Terreros, 04310 Ciudad de México, CDMX, Mexico
payment_option_id :1
card_id :
pem_file :1
-------------------------
Ride Accept api -: November 9, 2017, 8:35 pm
Response: {"result":1,"msg":"Booking Accepted!!","details":{"ride_id":"26","user_id":"1","coupon_code":"","pickup_lat":"19.34357683383541","pickup_long":"-99.17422603815793","pickup_location":"Calle Prol. Zaragoza 173, Romero de Terreros, 04310 Ciudad de M\u00e9xico, CDMX, Mexico","drop_lat":"19.423134599999994","drop_long":"-99.1758022","drop_location":"Centro de Cultura Digital","ride_date":"Thursday, Nov 9","ride_time":"20:35:28","last_time_stamp":"08:35:37 PM","ride_image":"https:maps.googleapis.com\/maps\/api\/staticmap?center=&zoom=12&size=200x200&maptype=roadmap&markers=color:green|label:S|19.34357683383541,-99.17422603815793&markers=color:red|label:D|19.423134599999994,-99.1758022&key=AIzaSyAIFe17P91Mfez3T6cqk7hfDSyvMO812Z4","later_date":"","later_time":"","driver_id":"1","car_type_id":"2","ride_type":"1","pem_file":"1","ride_status":"3","payment_status":"0","reason_id":"0","payment_option_id":"1","card_id":"0","ride_platform":"1","ride_admin_status":"1","date":"2017-11-09","user_type":"1","user_name":"Guillermo .","user_email":"blemished_lotus@hotmail.com","user_phone":"+525528460207","user_password":"HoudyHow","user_image":"","device_id":"fN9DYjgtI-w:APA91bH7MsmnUL7wsUrL5tzdrE7AHlcvdKlSAESvAIMnAUaNFlNbCw7yQep9NRGTKTQt78Ax6rctVvIuoksj-fwOXFf9pGk-Ym3cm7MbaO9hfDhMe39B_janYuu5Bj_fe8AQ8knKQHZV","flag":"2","wallet_money":"0","register_date":"Thursday, Nov 2","referral_code":"","free_rides":"0","referral_code_send":"0","phone_verified":"0","email_verified":"0","password_created":"0","facebook_id":"","facebook_mail":"","facebook_image":"","facebook_firstname":"","facebook_lastname":"","google_id":"","google_name":"","google_mail":"","google_image":"","google_token":"","facebook_token":"","token_created":"0","login_logout":"1","rating":"","user_delete":"0","unique_number":"","user_signup_type":"1","user_signup_date":"2017-11-03","status":"1","car_type_name":"T-LLEVO EST\u00c1NDAR","car_name_arabic":"","car_type_name_french":"HATCHBACK","car_type_image":"uploads\/car\/editcar_2.png","cartype_image_size":"","ride_mode":"1","car_admin_status":"1","company_id":"0","commission":"0","driver_name":"Guillermo","driver_email":"blemished_lotus@hotmail.com","driver_phone":"5528460207","driver_image":"uploads\/driver\/1509647522driver_1.jpg","driver_password":"HoudyHow","driver_token":"oLNc0C2Ae31wgPLx","total_payment_eraned":"0","company_payment":"0","driver_payment":"","car_model_id":"3","car_number":"887-YAS","city_id":"120","license":"","license_expire":"","rc":"","rc_expire":"","insurance":"","insurance_expire":"","other_docs":"","driver_bank_name":"","driver_account_number":"","total_card_payment":"0.00","total_cash_payment":"0.00","amount_transfer_pending":"0.00","current_lat":"19.3434193","current_long":"-99.1748193","current_location":"----","last_update":"20:35","last_update_date":"Thursday, Nov 9, 2017","completed_rides":"0","reject_rides":"0","cancelled_rides":"0","busy":"1","online_offline":"1","detail_status":"2","payment_transfer":"0","verification_date":"2017-11-02","verification_status":"1","driver_signup_date":"2017-11-02","driver_status_image":"http:\/\/www.apporiotaxi.com\/superadminpanel\/images\/icons8-Error-80.png","driver_status_message":"your document id in under process, You will be notified very soon","total_document_need":"14","driver_admin_status":"1","verfiy_document":"14"}}
ride_id: 26
driver_id: 1
driver_token: oLNc0C2Ae31wgPLx
-------------------------
