car by city api -: November 2, 2017, 2:11 am
Response: {"result":1,"msg":"0.00594057064142","details":{"ride_id":"264","user_id":"25","coupon_code":"","pickup_lat":"18.934521766001158","pickup_long":"-99.21805165708065","pickup_location":"Calle R\u00edo Nazas 9, Vista Hermosa, 62290 Cuernavaca, Mor., Mexico","drop_lat":"18.656530399999998","drop_long":"-99.1899456","drop_location":"Zacatepec","ride_date":"Thursday, Nov 2","ride_time":"02:11:57","last_time_stamp":"02:11:57 AM","ride_image":"https:maps.googleapis.com\/maps\/api\/staticmap?center=&zoom=12&size=200x200&maptype=roadmap&markers=color:green|label:S|18.934521766001158,-99.21805165708065&markers=color:red|label:D|18.656530399999998,-99.1899456&key=AIzaSyAIFe17P91Mfez3T6cqk7hfDSyvMO812Z4","later_date":"","later_time":"","driver_id":"0","car_type_id":"2","ride_type":"1","pem_file":"1","ride_status":"1","payment_status":"0","reason_id":"0","payment_option_id":"1","card_id":"0","ride_platform":"1","ride_admin_status":"1","date":"2017-11-02"}}
drop_lat: 18.656530399999998
drop_long: -99.1899456
drop_location: Zacatepec
car_type_id:2
user_id:25
coupon_code :
pickup_lat : 18.934521766001158
pickup_long : -99.21805165708065
pickup_location :Calle Río Nazas 9, Vista Hermosa, 62290 Cuernavaca, Mor., Mexico
payment_option_id :1
card_id :
pem_file :1
-------------------------
Ride Accept api -: November 2, 2017, 2:12 am
Response: {"result":1,"msg":"Booking Accepted!!","details":{"ride_id":"264","user_id":"25","coupon_code":"","pickup_lat":"18.934521766001158","pickup_long":"-99.21805165708065","pickup_location":"Calle R\u00edo Nazas 9, Vista Hermosa, 62290 Cuernavaca, Mor., Mexico","drop_lat":"18.656530399999998","drop_long":"-99.1899456","drop_location":"Zacatepec","ride_date":"Thursday, Nov 2","ride_time":"02:11:57","last_time_stamp":"02:12:06 AM","ride_image":"https:maps.googleapis.com\/maps\/api\/staticmap?center=&zoom=12&size=200x200&maptype=roadmap&markers=color:green|label:S|18.934521766001158,-99.21805165708065&markers=color:red|label:D|18.656530399999998,-99.1899456&key=AIzaSyAIFe17P91Mfez3T6cqk7hfDSyvMO812Z4","later_date":"","later_time":"","driver_id":"33","car_type_id":"2","ride_type":"1","pem_file":"1","ride_status":"3","payment_status":"0","reason_id":"0","payment_option_id":"1","card_id":"0","ride_platform":"1","ride_admin_status":"1","date":"2017-11-02","user_type":"1","user_name":"lenovo usuario .","user_email":"guuf650122@hotmail.com","user_phone":"+525527270885","user_password":"selenia1","user_image":"","device_id":"cKz4Sme9Xss:APA91bGDB7hY6IzyxqIqwHW9OL5wAsbLEyvY-l35kL_4IAM4mxFRszW3RS89NNJ8AQNOsSQRPCjGVknfij3xLOyoEztN6KcLrkssANA4SJN_KusTIsfbO8MlMu8fz2hnPqf98vWzMwqh","flag":"2","wallet_money":"0","register_date":"Saturday, Oct 28","referral_code":"","free_rides":"0","referral_code_send":"0","phone_verified":"0","email_verified":"0","password_created":"0","facebook_id":"","facebook_mail":"","facebook_image":"","facebook_firstname":"","facebook_lastname":"","google_id":"","google_name":"","google_mail":"","google_image":"","google_token":"","facebook_token":"","token_created":"0","login_logout":"1","rating":"0.857142857143","user_delete":"0","unique_number":"","user_signup_type":"1","user_signup_date":"2017-10-28","status":"1","car_type_name":"T-LLEVO EST\u00c1NDAR","car_name_arabic":"","car_type_name_french":"HATCHBACK","car_type_image":"uploads\/car\/editcar_2.png","cartype_image_size":"","ride_mode":"1","car_admin_status":"1","company_id":"0","commission":"0","driver_name":"Huawei driver","driver_email":"guuf650122@gmail.com","driver_phone":"5569177192","driver_image":"uploads\/driver\/1509212038driver_33.jpg","driver_password":"natalia1","driver_token":"AU5tqC4LfvHg3xnJ","total_payment_eraned":"1858.8","company_payment":"0","driver_payment":"","car_model_id":"3","car_number":"1314 JGD","city_id":"120","license":"","license_expire":"","rc":"","rc_expire":"","insurance":"","insurance_expire":"","other_docs":"","driver_bank_name":"","driver_account_number":"","total_card_payment":"0.00","total_cash_payment":"0.00","amount_transfer_pending":"0.00","current_lat":"18.9345644","current_long":"-99.2180857","current_location":"----","last_update":"02:12","last_update_date":"Thursday, Nov 2, 2017","completed_rides":"29","reject_rides":"0","cancelled_rides":"1","busy":"1","online_offline":"1","detail_status":"2","payment_transfer":"0","verification_date":"2017-11-01","verification_status":"0","driver_signup_date":"2017-10-28","driver_status_image":"http:\/\/www.apporiotaxi.com\/superadminpanel\/images\/icons8-Error-80.png","driver_status_message":"Your Are Reject By Admin","total_document_need":"14","driver_admin_status":"1","verfiy_document":"11"}}
ride_id: 264
driver_id: 33
driver_token: AU5tqC4LfvHg3xnJ
-------------------------
ride start to road  Api - : November 2, 2017, 2:12 am
ride_id :264
driver_id: 33
begin_lat: 18.9346458
begin_long: -99.218115
driver_token: AU5tqC4LfvHg3xnJ
-------------------------
Driver App - Login driver Api: November 2, 2017, 7:04 pm
Response: Array
(
    [driver_id] => 1
    [company_id] => 0
    [commission] => 0
    [driver_name] => Guillermo
    [driver_email] => blemished_lotus@hotmail.com
    [driver_phone] => 5528460207
    [driver_image] => uploads/driver/1509647522driver_1.jpg
    [driver_password] => HoudyHow
    [driver_token] => MAHwl1JdQISQGT47
    [total_payment_eraned] => 0
    [company_payment] => 0
    [driver_payment] => 
    [device_id] => 
    [flag] => 0
    [rating] => 
    [car_type_id] => 2
    [car_model_id] => 3
    [car_number] => 887-YAS
    [city_id] => 120
    [register_date] => Thursday, Nov 2
    [license] => 
    [license_expire] => 
    [rc] => 
    [rc_expire] => 
    [insurance] => 
    [insurance_expire] => 
    [other_docs] => 
    [driver_bank_name] => 
    [driver_account_number] => 
    [total_card_payment] => 0.00
    [total_cash_payment] => 0.00
    [amount_transfer_pending] => 0.00
    [current_lat] => 
    [current_long] => 
    [current_location] => 
    [last_update] => 
    [last_update_date] => 
    [completed_rides] => 0
    [reject_rides] => 0
    [cancelled_rides] => 0
    [login_logout] => 2
    [busy] => 0
    [online_offline] => 0
    [detail_status] => 3
    [payment_transfer] => 0
    [verification_date] => 
    [verification_status] => 0
    [unique_number] => 
    [driver_signup_date] => 2017-11-02
    [driver_status_image] => http://www.apporiotaxi.com/superadminpanel/images/icons8-Error-80.png
    [driver_status_message] => your document id in under process, You will be notified very soon
    [total_document_need] => 14
    [driver_admin_status] => 1
    [verfiy_document] => 0
    [city_name] => México
    [city_latitude] => 19.4326077
    [city_longitude] => -99.133208
    [currency] => $
    [distance] => Km
    [city_name_arabic] => 
    [city_name_french] => 
    [city_admin_status] => 1
    [car_type_name] => T-LLEVO ESTÁNDAR
    [car_model_name] => Figo
)

driver_email_phone: 5528460207
driver_password: HoudyHow
-------------------------
Driver App - Login driver Api: November 2, 2017, 7:07 pm
Response: Array
(
    [driver_id] => 1
    [company_id] => 0
    [commission] => 0
    [driver_name] => Guillermo
    [driver_email] => blemished_lotus@hotmail.com
    [driver_phone] => 5528460207
    [driver_image] => uploads/driver/1509647522driver_1.jpg
    [driver_password] => HoudyHow
    [driver_token] => 5bvlU5AIwYC3CmV7
    [total_payment_eraned] => 0
    [company_payment] => 0
    [driver_payment] => 
    [device_id] => 
    [flag] => 0
    [rating] => 
    [car_type_id] => 2
    [car_model_id] => 3
    [car_number] => 887-YAS
    [city_id] => 120
    [register_date] => Thursday, Nov 2
    [license] => 
    [license_expire] => 
    [rc] => 
    [rc_expire] => 
    [insurance] => 
    [insurance_expire] => 
    [other_docs] => 
    [driver_bank_name] => 
    [driver_account_number] => 
    [total_card_payment] => 0.00
    [total_cash_payment] => 0.00
    [amount_transfer_pending] => 0.00
    [current_lat] => 
    [current_long] => 
    [current_location] => 
    [last_update] => 
    [last_update_date] => 
    [completed_rides] => 0
    [reject_rides] => 0
    [cancelled_rides] => 0
    [login_logout] => 1
    [busy] => 0
    [online_offline] => 0
    [detail_status] => 2
    [payment_transfer] => 0
    [verification_date] => 2017-11-02
    [verification_status] => 1
    [unique_number] => 
    [driver_signup_date] => 2017-11-02
    [driver_status_image] => http://www.apporiotaxi.com/superadminpanel/images/icons8-Error-80.png
    [driver_status_message] => your document id in under process, You will be notified very soon
    [total_document_need] => 14
    [driver_admin_status] => 1
    [verfiy_document] => 14
    [city_name] => México
    [city_latitude] => 19.4326077
    [city_longitude] => -99.133208
    [currency] => $
    [distance] => Km
    [city_name_arabic] => 
    [city_name_french] => 
    [city_admin_status] => 1
    [car_type_name] => T-LLEVO ESTÁNDAR
    [car_model_name] => Figo
)

driver_email_phone: 5528460207
driver_password: HoudyHow
-------------------------
