car by city api -: October 11, 2017, 3:23 am
Response: {"result":1,"msg":"0.00285266450405","details":{"ride_id":"161","user_id":"22","coupon_code":"","pickup_lat":"19.703672768893977","pickup_long":"-99.2220276966691","pickup_location":"Aacini, Axotlan, 54715 Cuautitl\u00e1n Izcalli, M\u00e9x., Mexico","drop_lat":"19.71066005745743","drop_long":"-99.22224495559931","drop_location":"Ignacio Aldama 7A, San Martin, 54605 Tepotzotl\u00e1n, M\u00e9x., Mexico","ride_date":"Wednesday, Oct 11","ride_time":"03:23:38","last_time_stamp":"03:23:38 AM","ride_image":"https:maps.googleapis.com\/maps\/api\/staticmap?center=&zoom=12&size=200x200&maptype=roadmap&markers=color:green|label:S|19.703672768893977,-99.2220276966691&markers=color:red|label:D|19.71066005745743,-99.22224495559931&key=AIzaSyAIFe17P91Mfez3T6cqk7hfDSyvMO812Z4","later_date":"","later_time":"","driver_id":"0","car_type_id":"2","ride_type":"1","pem_file":"1","ride_status":"1","payment_status":"0","reason_id":"0","payment_option_id":"1","card_id":"0","ride_platform":"1","ride_admin_status":"1","date":"2017-10-11"}}
drop_lat: 19.71066005745743
drop_long: -99.22224495559931
drop_location: Ignacio Aldama 7A, San Martin, 54605 Tepotzotlán, Méx., Mexico
car_type_id:2
user_id:22
coupon_code :
pickup_lat : 19.703672768893977
pickup_long : -99.2220276966691
pickup_location :Aacini, Axotlan, 54715 Cuautitlán Izcalli, Méx., Mexico
payment_option_id :1
card_id :
pem_file :1
-------------------------
Ride Accept api -: October 11, 2017, 3:23 am
Response: {"result":1,"msg":"Booking Accepted!!","details":{"ride_id":"161","user_id":"22","coupon_code":"","pickup_lat":"19.703672768893977","pickup_long":"-99.2220276966691","pickup_location":"Aacini, Axotlan, 54715 Cuautitl\u00e1n Izcalli, M\u00e9x., Mexico","drop_lat":"19.71066005745743","drop_long":"-99.22224495559931","drop_location":"Ignacio Aldama 7A, San Martin, 54605 Tepotzotl\u00e1n, M\u00e9x., Mexico","ride_date":"Wednesday, Oct 11","ride_time":"03:23:38","last_time_stamp":"03:23:44 AM","ride_image":"https:maps.googleapis.com\/maps\/api\/staticmap?center=&zoom=12&size=200x200&maptype=roadmap&markers=color:green|label:S|19.703672768893977,-99.2220276966691&markers=color:red|label:D|19.71066005745743,-99.22224495559931&key=AIzaSyAIFe17P91Mfez3T6cqk7hfDSyvMO812Z4","later_date":"","later_time":"","driver_id":"29","car_type_id":"2","ride_type":"1","pem_file":"1","ride_status":"3","payment_status":"0","reason_id":"0","payment_option_id":"1","card_id":"0","ride_platform":"1","ride_admin_status":"1","date":"2017-10-11","user_type":"1","user_name":"checo perez .","user_email":"checoperez@f1.com","user_phone":"+525558121212","user_password":"098765","user_image":"","device_id":"fKkMzdvYscY:APA91bGjh_g60dM6rS96MZXGW7hJMI9aukPpDcuQOIw40IZZirwYDoAjvv2u5L1CYnb9iyLQ3hEvwJ8Jg3inLejP1t_MrNrDP4_ccjhYVuhecqj0nJyx80SrFFKGh7aO0kvjCoiDYa1a","flag":"2","wallet_money":"0","register_date":"Friday, Oct 6","referral_code":"","free_rides":"0","referral_code_send":"0","phone_verified":"0","email_verified":"0","password_created":"0","facebook_id":"","facebook_mail":"","facebook_image":"","facebook_firstname":"","facebook_lastname":"","google_id":"","google_name":"","google_mail":"","google_image":"","google_token":"","facebook_token":"","token_created":"0","login_logout":"1","rating":"1.56666666667","user_delete":"0","unique_number":"","user_signup_type":"1","user_signup_date":"2017-10-07","status":"1","car_type_name":"T-LLEVO EST\u00c1NDAR","car_name_arabic":"","car_type_name_french":"HATCHBACK","car_type_image":"uploads\/car\/editcar_2.png","cartype_image_size":"","ride_mode":"1","car_admin_status":"1","company_id":"0","commission":"0","driver_name":"Juan perez","driver_email":"josefgu@uvrmex.com","driver_phone":"5558897174","driver_image":"uploads\/driver\/1507322232driver_29.jpg","driver_password":"444444","driver_token":"ykrjx7N4uYdKYsdv","total_payment_eraned":"3571.28","company_payment":"0","driver_payment":"","car_model_id":"3","car_number":"NEU466e","city_id":"120","license":"","license_expire":"","rc":"","rc_expire":"","insurance":"","insurance_expire":"","other_docs":"","driver_bank_name":"","driver_account_number":"","total_card_payment":"0.00","total_cash_payment":"0.00","amount_transfer_pending":"0.00","current_lat":"19.703695","current_long":"-99.2220141","current_location":"----","last_update":"03:23","last_update_date":"Wednesday, Oct 11, 2017","completed_rides":"12","reject_rides":"0","cancelled_rides":"0","busy":"1","online_offline":"1","detail_status":"2","payment_transfer":"0","verification_date":"2017-10-06","verification_status":"1","driver_signup_date":"2017-10-06","driver_status_image":"http:\/\/www.apporiotaxi.com\/superadminpanel\/images\/icons8-Error-80.png","driver_status_message":"your document id in under process, You will be notified very soon","total_document_need":"7","driver_admin_status":"1","verfiy_document":"7"}}
ride_id: 161
driver_id: 29
driver_token: ykrjx7N4uYdKYsdv
-------------------------
ride start to road  Api - : October 11, 2017, 3:24 am
ride_id :161
driver_id: 29
begin_lat: 19.7036727
begin_long: -99.2220276
driver_token: ykrjx7N4uYdKYsdv
-------------------------
ride end Api - : October 11, 2017, 3:28 am
ride_id: 161
driver_id: 29
end_lat: 19.7107165
end_long: -99.221678
meter_distance: 2160.0
lat_long: 19.7096274,-99.2209861|19.710767,-99.2215914
-------------------------
