car by city api -: November 20, 2017, 8:37 am
Response: {"result":1,"msg":"0.0242636707618","details":{"ride_id":"62","user_id":"4","coupon_code":"","pickup_lat":"19.687727465226427","pickup_long":"-99.2249033600092","pickup_location":"Avenida Huehuetoca, Bosques de Hacienda, 54768 Cuautitl\u00e1n Izcalli, M\u00e9x., Mexico","drop_lat":"19.60044339112146","drop_long":"-99.19085875153542","drop_location":"Hda. de Sierra Vieja 151, Hacienda del Parque, 54769 Cuautitl\u00e1n Izcalli, M\u00e9x., Mexico","ride_date":"Monday, Nov 20","ride_time":"08:37:37","last_time_stamp":"08:37:37 AM","ride_image":"https:maps.googleapis.com\/maps\/api\/staticmap?center=&zoom=12&size=200x200&maptype=roadmap&markers=color:green|label:S|19.687727465226427,-99.2249033600092&markers=color:red|label:D|19.60044339112146,-99.19085875153542&key=AIzaSyAIFe17P91Mfez3T6cqk7hfDSyvMO812Z4","later_date":"","later_time":"","driver_id":"0","car_type_id":"2","ride_type":"1","pem_file":"1","ride_status":"1","payment_status":"0","reason_id":"0","payment_option_id":"1","card_id":"0","ride_platform":"1","ride_admin_status":"1","date":"2017-11-20"}}
drop_lat: 19.60044339112146
drop_long: -99.19085875153542
drop_location: Hda. de Sierra Vieja 151, Hacienda del Parque, 54769 Cuautitlán Izcalli, Méx., Mexico
car_type_id:2
user_id:4
coupon_code :
pickup_lat : 19.687727465226427
pickup_long : -99.2249033600092
pickup_location :Avenida Huehuetoca, Bosques de Hacienda, 54768 Cuautitlán Izcalli, Méx., Mexico
payment_option_id :1
card_id :
pem_file :1
-------------------------
Ride Accept api -: November 20, 2017, 8:37 am
Response: {"result":1,"msg":"Booking Accepted!!","details":{"ride_id":"62","user_id":"4","coupon_code":"","pickup_lat":"19.687727465226427","pickup_long":"-99.2249033600092","pickup_location":"Avenida Huehuetoca, Bosques de Hacienda, 54768 Cuautitl\u00e1n Izcalli, M\u00e9x., Mexico","drop_lat":"19.60044339112146","drop_long":"-99.19085875153542","drop_location":"Hda. de Sierra Vieja 151, Hacienda del Parque, 54769 Cuautitl\u00e1n Izcalli, M\u00e9x., Mexico","ride_date":"Monday, Nov 20","ride_time":"08:37:37","last_time_stamp":"08:37:44 AM","ride_image":"https:maps.googleapis.com\/maps\/api\/staticmap?center=&zoom=12&size=200x200&maptype=roadmap&markers=color:green|label:S|19.687727465226427,-99.2249033600092&markers=color:red|label:D|19.60044339112146,-99.19085875153542&key=AIzaSyAIFe17P91Mfez3T6cqk7hfDSyvMO812Z4","later_date":"","later_time":"","driver_id":"14","car_type_id":"2","ride_type":"1","pem_file":"1","ride_status":"3","payment_status":"0","reason_id":"0","payment_option_id":"1","card_id":"0","ride_platform":"1","ride_admin_status":"1","date":"2017-11-20","user_type":"1","user_name":"F Lenovo Usuario .","user_email":"ucpsysacv@gmail.com","user_phone":"+525527270885","user_password":"selenia1","user_image":"","device_id":"dWo6aDzMazs:APA91bEmKWqDYk3VAg32lkTuE7jZN28gQFNkv5AI2SenxazKlVxziVZdgb2ySau5On8dR5Y-ysKdZVsNF49lVrb3m6bIpHfIzdhvyzAeGzhibLUbaHTg1wkPJT_Eh-YzFs5WAO6NTgFx","flag":"2","wallet_money":"0","register_date":"Friday, Nov 17","referral_code":"","free_rides":"0","referral_code_send":"0","phone_verified":"0","email_verified":"0","password_created":"0","facebook_id":"","facebook_mail":"","facebook_image":"","facebook_firstname":"","facebook_lastname":"","google_id":"","google_name":"","google_mail":"","google_image":"","google_token":"","facebook_token":"","token_created":"0","login_logout":"1","rating":"1.42857142857","user_delete":"0","unique_number":"","user_signup_type":"1","user_signup_date":"2017-11-14","status":"1","car_type_name":"T-LLEVO EST\u00c1NDAR","car_name_arabic":"","car_type_name_french":"HATCHBACK","car_type_image":"uploads\/car\/editcar_2.png","cartype_image_size":"","ride_mode":"1","car_admin_status":"1","company_id":"0","commission":"10","driver_name":"motog","driver_email":"ucpsysacv@gmail.com","driver_phone":"5569177192","driver_image":"uploads\/driver\/1510932000driver_14.jpg","driver_password":"selenia1","driver_token":"FCGxOFWrsODl7CYp","total_payment_eraned":"421.92","company_payment":"46.88","driver_payment":"","car_model_id":"3","car_number":"5367jfk","city_id":"120","license":"","license_expire":"","rc":"","rc_expire":"","insurance":"","insurance_expire":"","other_docs":"","driver_bank_name":"","driver_account_number":"","total_card_payment":"0.00","total_cash_payment":"0.00","amount_transfer_pending":"0.00","current_lat":"19.6879436","current_long":"-99.2248714","current_location":"","last_update":"08:37","last_update_date":"Monday, Nov 20, 2017","completed_rides":"8","reject_rides":"0","cancelled_rides":"0","busy":"1","online_offline":"1","detail_status":"2","payment_transfer":"0","verification_date":"2017-11-17","verification_status":"1","driver_signup_date":"2017-11-17","driver_status_image":"http:\/\/www.apporiotaxi.com\/superadminpanel\/images\/icons8-Error-80.png","driver_status_message":"your document id in under process, You will be notified very soon","total_document_need":"12","driver_admin_status":"1","verfiy_document":"12"}}
ride_id: 62
driver_id: 14
driver_token: FCGxOFWrsODl7CYp
-------------------------
ride start to road  Api - : November 20, 2017, 8:38 am
ride_id :62
driver_id: 14
begin_lat: 19.6879279
begin_long: -99.2245759
driver_token: FCGxOFWrsODl7CYp
-------------------------
ride end Api - : November 20, 2017, 8:54 am
ride_id: 62
driver_id: 14
end_lat: 19.6007098
end_long: -99.1906865
meter_distance: 11830.0
lat_long: 19.6878824,-99.2234531|19.687774,-99.2223339|19.6876474,-99.2211303|19.6876151,-99.2199681|19.6875593,-99.2188217|19.6874602,-99.2177168|19.6873783,-99.2165414|19.6872512,-99.2150223|19.6871034,-99.2135706|19.6869628,-99.2122425|19.6867463,-99.2106807|19.6865783,-99.2095491|19.6863566,-99.2081855|19.6862272,-99.2070676|19.6859772,-99.2059905|19.6858502,-99.2047725|19.6851902,-99.2038521|19.6845667,-99.2030684|19.6837413,-99.2025186|19.6824139,-99.2022877|19.6810081,-99.2019345|19.6789688,-99.2015245|19.676685,-99.2011397|19.6756482,-99.2009449|19.6743675,-99.2007044|19.6726686,-99.2004147|19.6715278,-99.2001757|19.6701139,-99.1999838|19.6686365,-99.1997533|19.6671966,-99.1994325|19.665654,-99.1992073|19.664137,-99.1990393|19.6625515,-99.1987448|19.6610259,-99.198489|19.6594816,-99.1982283|19.6579086,-99.1979604|19.6562823,-99.1977018|19.6550037,-99.1974641|19.6533492,-99.1971531|19.6516813,-99.1969007|19.6500556,-99.1966655|19.6483997,-99.1963811|19.646876,-99.1961675|19.6453704,-99.1958956|19.6439217,-99.195667|19.6422138,-99.1953848|19.6409669,-99.1951796|19.6394303,-99.1949521|19.6379117,-99.1947028|19.6363571,-99.1944821|19.6349023,-99.1942195|19.6334603,-99.1939737|19.6319647,-99.1937035|19.6304451,-99.1934685|19.6289504,-99.1931932|19.6275416,-99.1929339|19.6262157,-99.1927029|19.6250455,-99.1925223|19.6239819,-99.1923547|19.6228763,-99.1921605|19.6218017,-99.1919905|19.6207328,-99.1917896|19.6196586,-99.1916487|19.618687,-99.1914992|19.617515,-99.1912861|19.616509,-99.1911415|19.6155658,-99.1910303|19.6138308,-99.1907613|19.612911,-99.1906358|19.6120024,-99.1904994|19.610164,-99.1903027|19.6091395,-99.1900978|19.6081122,-99.1899602|19.6071244,-99.1897412|19.6061779,-99.1896016|19.6045789,-99.1894333|19.6032898,-99.1893345|19.6023672,-99.1894685|19.6014698,-99.1899936|19.6008672,-99.1907575
-------------------------
car by city api -: November 20, 2017, 9:05 am
Response: {"result":1,"msg":"0.0921310442962","details":{"ride_id":"63","user_id":"4","coupon_code":"","pickup_lat":"19.602087058339027","pickup_long":"-99.19303804636002","pickup_location":"Prol. Hacienda Xalpa 12B, Hacienda del Parque, 54769 Cuautitl\u00e1n Izcalli, M\u00e9x., Mexico","drop_lat":"19.673057923986565","drop_long":"-99.23031907528637","drop_location":"Av. del Trabajo 20, Bellavista, 54710 Cuautitl\u00e1n Izcalli, M\u00e9x., Mexico","ride_date":"Monday, Nov 20","ride_time":"09:05:18","last_time_stamp":"09:05:18 AM","ride_image":"https:maps.googleapis.com\/maps\/api\/staticmap?center=&zoom=12&size=200x200&maptype=roadmap&markers=color:green|label:S|19.602087058339027,-99.19303804636002&markers=color:red|label:D|19.673057923986565,-99.23031907528637&key=AIzaSyAIFe17P91Mfez3T6cqk7hfDSyvMO812Z4","later_date":"","later_time":"","driver_id":"0","car_type_id":"2","ride_type":"1","pem_file":"1","ride_status":"1","payment_status":"0","reason_id":"0","payment_option_id":"1","card_id":"0","ride_platform":"1","ride_admin_status":"1","date":"2017-11-20"}}
drop_lat: 19.673057923986565
drop_long: -99.23031907528637
drop_location: Av. del Trabajo 20, Bellavista, 54710 Cuautitlán Izcalli, Méx., Mexico
car_type_id:2
user_id:4
coupon_code :
pickup_lat : 19.602087058339027
pickup_long : -99.19303804636002
pickup_location :Prol. Hacienda Xalpa 12B, Hacienda del Parque, 54769 Cuautitlán Izcalli, Méx., Mexico
payment_option_id :1
card_id :
pem_file :1
-------------------------
Ride Accept api -: November 20, 2017, 9:05 am
Response: {"result":1,"msg":"Booking Accepted!!","details":{"ride_id":"63","user_id":"4","coupon_code":"","pickup_lat":"19.602087058339027","pickup_long":"-99.19303804636002","pickup_location":"Prol. Hacienda Xalpa 12B, Hacienda del Parque, 54769 Cuautitl\u00e1n Izcalli, M\u00e9x., Mexico","drop_lat":"19.673057923986565","drop_long":"-99.23031907528637","drop_location":"Av. del Trabajo 20, Bellavista, 54710 Cuautitl\u00e1n Izcalli, M\u00e9x., Mexico","ride_date":"Monday, Nov 20","ride_time":"09:05:18","last_time_stamp":"09:05:25 AM","ride_image":"https:maps.googleapis.com\/maps\/api\/staticmap?center=&zoom=12&size=200x200&maptype=roadmap&markers=color:green|label:S|19.602087058339027,-99.19303804636002&markers=color:red|label:D|19.673057923986565,-99.23031907528637&key=AIzaSyAIFe17P91Mfez3T6cqk7hfDSyvMO812Z4","later_date":"","later_time":"","driver_id":"14","car_type_id":"2","ride_type":"1","pem_file":"1","ride_status":"3","payment_status":"0","reason_id":"0","payment_option_id":"1","card_id":"0","ride_platform":"1","ride_admin_status":"1","date":"2017-11-20","user_type":"1","user_name":"F Lenovo Usuario .","user_email":"ucpsysacv@gmail.com","user_phone":"+525527270885","user_password":"selenia1","user_image":"","device_id":"dWo6aDzMazs:APA91bEmKWqDYk3VAg32lkTuE7jZN28gQFNkv5AI2SenxazKlVxziVZdgb2ySau5On8dR5Y-ysKdZVsNF49lVrb3m6bIpHfIzdhvyzAeGzhibLUbaHTg1wkPJT_Eh-YzFs5WAO6NTgFx","flag":"2","wallet_money":"0","register_date":"Friday, Nov 17","referral_code":"","free_rides":"0","referral_code_send":"0","phone_verified":"0","email_verified":"0","password_created":"0","facebook_id":"","facebook_mail":"","facebook_image":"","facebook_firstname":"","facebook_lastname":"","google_id":"","google_name":"","google_mail":"","google_image":"","google_token":"","facebook_token":"","token_created":"0","login_logout":"1","rating":"1.25","user_delete":"0","unique_number":"","user_signup_type":"1","user_signup_date":"2017-11-14","status":"1","car_type_name":"T-LLEVO EST\u00c1NDAR","car_name_arabic":"","car_type_name_french":"HATCHBACK","car_type_image":"uploads\/car\/editcar_2.png","cartype_image_size":"","ride_mode":"1","car_admin_status":"1","company_id":"0","commission":"10","driver_name":"motog","driver_email":"ucpsysacv@gmail.com","driver_phone":"5569177192","driver_image":"uploads\/driver\/1510932000driver_14.jpg","driver_password":"selenia1","driver_token":"FCGxOFWrsODl7CYp","total_payment_eraned":"479.34","company_payment":"53.26","driver_payment":"","car_model_id":"3","car_number":"5367jfk","city_id":"120","license":"","license_expire":"","rc":"","rc_expire":"","insurance":"","insurance_expire":"","other_docs":"","driver_bank_name":"","driver_account_number":"","total_card_payment":"0.00","total_cash_payment":"0.00","amount_transfer_pending":"0.00","current_lat":"19.601495","current_long":"-99.1924227","current_location":"","last_update":"09:05","last_update_date":"Monday, Nov 20, 2017","completed_rides":"9","reject_rides":"0","cancelled_rides":"0","busy":"1","online_offline":"1","detail_status":"2","payment_transfer":"0","verification_date":"2017-11-17","verification_status":"1","driver_signup_date":"2017-11-17","driver_status_image":"http:\/\/www.apporiotaxi.com\/superadminpanel\/images\/icons8-Error-80.png","driver_status_message":"your document id in under process, You will be notified very soon","total_document_need":"12","driver_admin_status":"1","verfiy_document":"12"}}
ride_id: 63
driver_id: 14
driver_token: FCGxOFWrsODl7CYp
-------------------------
ride start to road  Api - : November 20, 2017, 9:05 am
ride_id :63
driver_id: 14
begin_lat: 19.6020158
begin_long: -99.1929064
driver_token: FCGxOFWrsODl7CYp
-------------------------
car by city api -: November 20, 2017, 9:08 am
Response: {"result":1,"msg":"0.644263046959","details":{"ride_id":"64","user_id":"2","coupon_code":"","pickup_lat":"19.605077137789795","pickup_long":"-99.18765552341938","pickup_location":"Av. del Parque, La Quebrada, 54769 Cuautitl\u00e1n Izcalli, M\u00e9x., Mexico","drop_lat":"19.67328996751401","drop_long":"-99.23005923628807","drop_location":"Del Rosal 15, Bellavista, 54710 Cuautitl\u00e1n Izcalli, M\u00e9x., Mexico","ride_date":"Monday, Nov 20","ride_time":"09:08:17","last_time_stamp":"09:08:17 AM","ride_image":"https:maps.googleapis.com\/maps\/api\/staticmap?center=&zoom=12&size=200x200&maptype=roadmap&markers=color:green|label:S|19.605077137789795,-99.18765552341938&markers=color:red|label:D|19.67328996751401,-99.23005923628807&key=AIzaSyAIFe17P91Mfez3T6cqk7hfDSyvMO812Z4","later_date":"","later_time":"","driver_id":"0","car_type_id":"4","ride_type":"1","pem_file":"1","ride_status":"1","payment_status":"0","reason_id":"0","payment_option_id":"1","card_id":"0","ride_platform":"1","ride_admin_status":"1","date":"2017-11-20"}}
drop_lat: 19.67328996751401
drop_long: -99.23005923628807
drop_location: Del Rosal 15, Bellavista, 54710 Cuautitlán Izcalli, Méx., Mexico
car_type_id:4
user_id:2
coupon_code :
pickup_lat : 19.605077137789795
pickup_long : -99.18765552341938
pickup_location :Av. del Parque, La Quebrada, 54769 Cuautitlán Izcalli, Méx., Mexico
payment_option_id :1
card_id :
pem_file :1
-------------------------
Ride Accept api -: November 20, 2017, 9:08 am
Response: {"result":1,"msg":"Booking Accepted!!","details":{"ride_id":"64","user_id":"2","coupon_code":"","pickup_lat":"19.605077137789795","pickup_long":"-99.18765552341938","pickup_location":"Av. del Parque, La Quebrada, 54769 Cuautitl\u00e1n Izcalli, M\u00e9x., Mexico","drop_lat":"19.67328996751401","drop_long":"-99.23005923628807","drop_location":"Del Rosal 15, Bellavista, 54710 Cuautitl\u00e1n Izcalli, M\u00e9x., Mexico","ride_date":"Monday, Nov 20","ride_time":"09:08:17","last_time_stamp":"09:08:20 AM","ride_image":"https:maps.googleapis.com\/maps\/api\/staticmap?center=&zoom=12&size=200x200&maptype=roadmap&markers=color:green|label:S|19.605077137789795,-99.18765552341938&markers=color:red|label:D|19.67328996751401,-99.23005923628807&key=AIzaSyAIFe17P91Mfez3T6cqk7hfDSyvMO812Z4","later_date":"","later_time":"","driver_id":"15","car_type_id":"4","ride_type":"1","pem_file":"1","ride_status":"3","payment_status":"0","reason_id":"0","payment_option_id":"1","card_id":"0","ride_platform":"1","ride_admin_status":"1","date":"2017-11-20","user_type":"1","user_name":"F Motog Usuario","user_email":"guuf650122@gmail.com","user_phone":"+525569177192","user_password":"123456","user_image":"","device_id":"d0VtG5uQIw0:APA91bFBWwZlqKhoOgJhl8tt5Wt-4YqL4LlZQKZLklvz2AqNhUT9Hr5Ido53tVlW7qWxyBgoECBbri4CqXhpJi6nES4rk5h84a4iUL5hzY3hkTpfzXDPaK9W2tXt908uLplXUj2TIsQx","flag":"2","wallet_money":"0","register_date":"Friday, Nov 17","referral_code":"","free_rides":"0","referral_code_send":"0","phone_verified":"0","email_verified":"0","password_created":"0","facebook_id":"","facebook_mail":"","facebook_image":"","facebook_firstname":"","facebook_lastname":"","google_id":"","google_name":"","google_mail":"","google_image":"","google_token":"","facebook_token":"","token_created":"0","login_logout":"1","rating":"","user_delete":"0","unique_number":"","user_signup_type":"1","user_signup_date":"0000-00-00","status":"1","car_type_name":"T-LLEVO DE LUJO","car_name_arabic":"","car_type_name_french":"Mini","car_type_image":"uploads\/car\/editcar_4.png","cartype_image_size":"","ride_mode":"1","car_admin_status":"1","company_id":"0","commission":"0","driver_name":"flenovo","driver_email":"ucpsysacv@hotmail.com","driver_phone":"5527270885","driver_image":"uploads\/driver\/1510932549driver_15.jpg","driver_password":"Selenia1","driver_token":"TLDSKXstUULa4Dho","total_payment_eraned":"224","company_payment":"0","driver_payment":"","car_model_id":"11","car_number":"2379jfl","city_id":"120","license":"","license_expire":"","rc":"","rc_expire":"","insurance":"","insurance_expire":"","other_docs":"","driver_bank_name":"","driver_account_number":"","total_card_payment":"0.00","total_cash_payment":"0.00","amount_transfer_pending":"0.00","current_lat":"19.6019222","current_long":"-99.1928146","current_location":"","last_update":"09:08","last_update_date":"Monday, Nov 20, 2017","completed_rides":"1","reject_rides":"0","cancelled_rides":"0","busy":"1","online_offline":"1","detail_status":"2","payment_transfer":"0","verification_date":"2017-11-17","verification_status":"1","driver_signup_date":"2017-11-17","driver_status_image":"http:\/\/www.apporiotaxi.com\/superadminpanel\/images\/icons8-Error-80.png","driver_status_message":"your document id in under process, You will be notified very soon","total_document_need":"12","driver_admin_status":"1","verfiy_document":"12"}}
ride_id: 64
driver_id: 15
driver_token: TLDSKXstUULa4Dho
-------------------------
ride start to road  Api - : November 20, 2017, 9:08 am
ride_id :64
driver_id: 15
begin_lat: 19.6020907
begin_long: -99.1930622
driver_token: TLDSKXstUULa4Dho
-------------------------
ride end Api - : November 20, 2017, 9:23 am
ride_id: 64
driver_id: 15
end_lat: 19.6732863
end_long: -99.2296912
meter_distance: 11170.0
lat_long: 19.6028698,-99.1930501|19.6038255,-99.1925157|19.6048065,-99.1920554|19.6059705,-99.1912663|19.6061776,-99.1902153|19.6070769,-99.1898776|19.6070969,-99.1888134|19.6081481,-99.1894315|19.6092645,-99.189609|19.6107952,-99.1898423|19.6120186,-99.190087|19.6132621,-99.1904727|19.6147144,-99.1908302|19.6162113,-99.1910164|19.6181226,-99.1913564|19.6190939,-99.1914598|19.620179,-99.1915358|19.6211752,-99.1917193|19.6221681,-99.1918924|19.6237445,-99.1921144|19.6253815,-99.192393|19.6264316,-99.1926261|19.6275956,-99.1928527|19.6288806,-99.1930984|19.6299128,-99.1932745|19.6316575,-99.1935717|19.6328084,-99.1937592|19.634639,-99.194071|19.6358644,-99.1942701|19.6376976,-99.1944857|19.6389084,-99.1946846|19.6406063,-99.1949687|19.641867,-99.1951986|19.6430888,-99.1953624|19.6441926,-99.195542|19.6452318,-99.1957389|19.647394,-99.1961429|19.6485886,-99.1963306|19.6495603,-99.1964842|19.6511418,-99.1966883|19.6524366,-99.1969562|19.6534692,-99.1971265|19.6548668,-99.1973552|19.6557716,-99.1975032|19.6570897,-99.1977768|19.6582225,-99.1979393|19.6593091,-99.1980888|19.6613476,-99.1983298|19.6624377,-99.1985232|19.6646711,-99.198906|19.6656971,-99.1989731|19.6667373,-99.1990897|19.6686661,-99.199426|19.669891,-99.1994716|19.6699726,-99.2008381|19.6703077,-99.2024852|19.6702998,-99.2038328|19.6702286,-99.2050477|19.6703309,-99.2065138|19.6704189,-99.2084175|19.6704301,-99.2099753|19.6702413,-99.2117236|19.6698441,-99.2133667|19.6697366,-99.2143161|19.6697328,-99.2153821|19.6695761,-99.2165455|19.6693001,-99.2178475|19.6696064,-99.2191811|19.6699888,-99.2204859|19.6701147,-99.2217554|19.6702325,-99.2227757|19.67098,-99.2242513|19.6715196,-99.2252263|19.6721826,-99.2264157|19.6724782,-99.2274234|19.6726212,-99.2284844|19.6728066,-99.2296977
-------------------------
ride end Api - : November 20, 2017, 9:24 am
ride_id: 63
driver_id: 14
end_lat: 19.6680714
end_long: -99.223658
meter_distance: 0.0
lat_long: 19.6036594,-99.1926525|19.60627841,-99.18999324|19.6074621743559,-99.18903740983248|19.62655254,-99.19270199|19.64967795,-99.19663083|19.66959869,-99.1993092|19.67039454,-99.21095827|19.66935649,-99.21751954|19.6716157,-99.2253634|19.67294655,-99.22997901
-------------------------
car by city api -: November 20, 2017, 10:18 am
Response: {"result":1,"msg":"0.0476430278979","details":{"ride_id":"65","user_id":"4","coupon_code":"","pickup_lat":"19.673419722319636","pickup_long":"-99.23016987740993","pickup_location":"Del Rosal 15, Bellavista, 54710 Cuautitl\u00e1n Izcalli, M\u00e9x., Mexico","drop_lat":"19.657562023190966","drop_long":"-99.21033829450607","drop_location":"Venus 65, Ensue\u00f1os, 54740 Cuautitl\u00e1n Izcalli, M\u00e9x., Mexico","ride_date":"Monday, Nov 20","ride_time":"10:18:22","last_time_stamp":"10:18:22 AM","ride_image":"https:maps.googleapis.com\/maps\/api\/staticmap?center=&zoom=12&size=200x200&maptype=roadmap&markers=color:green|label:S|19.673419722319636,-99.23016987740993&markers=color:red|label:D|19.657562023190966,-99.21033829450607&key=AIzaSyAIFe17P91Mfez3T6cqk7hfDSyvMO812Z4","later_date":"","later_time":"","driver_id":"0","car_type_id":"2","ride_type":"1","pem_file":"1","ride_status":"1","payment_status":"0","reason_id":"0","payment_option_id":"1","card_id":"0","ride_platform":"1","ride_admin_status":"1","date":"2017-11-20"}}
drop_lat: 19.657562023190966
drop_long: -99.21033829450607
drop_location: Venus 65, Ensueños, 54740 Cuautitlán Izcalli, Méx., Mexico
car_type_id:2
user_id:4
coupon_code :
pickup_lat : 19.673419722319636
pickup_long : -99.23016987740993
pickup_location :Del Rosal 15, Bellavista, 54710 Cuautitlán Izcalli, Méx., Mexico
payment_option_id :1
card_id :
pem_file :1
-------------------------
Ride Accept api -: November 20, 2017, 10:18 am
Response: {"result":1,"msg":"Booking Accepted!!","details":{"ride_id":"65","user_id":"4","coupon_code":"","pickup_lat":"19.673419722319636","pickup_long":"-99.23016987740993","pickup_location":"Del Rosal 15, Bellavista, 54710 Cuautitl\u00e1n Izcalli, M\u00e9x., Mexico","drop_lat":"19.657562023190966","drop_long":"-99.21033829450607","drop_location":"Venus 65, Ensue\u00f1os, 54740 Cuautitl\u00e1n Izcalli, M\u00e9x., Mexico","ride_date":"Monday, Nov 20","ride_time":"10:18:22","last_time_stamp":"10:18:29 AM","ride_image":"https:maps.googleapis.com\/maps\/api\/staticmap?center=&zoom=12&size=200x200&maptype=roadmap&markers=color:green|label:S|19.673419722319636,-99.23016987740993&markers=color:red|label:D|19.657562023190966,-99.21033829450607&key=AIzaSyAIFe17P91Mfez3T6cqk7hfDSyvMO812Z4","later_date":"","later_time":"","driver_id":"14","car_type_id":"2","ride_type":"1","pem_file":"1","ride_status":"3","payment_status":"0","reason_id":"0","payment_option_id":"1","card_id":"0","ride_platform":"1","ride_admin_status":"1","date":"2017-11-20","user_type":"1","user_name":"F Lenovo Usuario .","user_email":"ucpsysacv@gmail.com","user_phone":"+525527270885","user_password":"selenia1","user_image":"","device_id":"dWo6aDzMazs:APA91bEmKWqDYk3VAg32lkTuE7jZN28gQFNkv5AI2SenxazKlVxziVZdgb2ySau5On8dR5Y-ysKdZVsNF49lVrb3m6bIpHfIzdhvyzAeGzhibLUbaHTg1wkPJT_Eh-YzFs5WAO6NTgFx","flag":"2","wallet_money":"0","register_date":"Friday, Nov 17","referral_code":"","free_rides":"0","referral_code_send":"0","phone_verified":"0","email_verified":"0","password_created":"0","facebook_id":"","facebook_mail":"","facebook_image":"","facebook_firstname":"","facebook_lastname":"","google_id":"","google_name":"","google_mail":"","google_image":"","google_token":"","facebook_token":"","token_created":"0","login_logout":"1","rating":"1.66666666667","user_delete":"0","unique_number":"","user_signup_type":"1","user_signup_date":"2017-11-14","status":"1","car_type_name":"T-LLEVO EST\u00c1NDAR","car_name_arabic":"","car_type_name_french":"HATCHBACK","car_type_image":"uploads\/car\/editcar_2.png","cartype_image_size":"","ride_mode":"1","car_admin_status":"1","company_id":"0","commission":"10","driver_name":"motog","driver_email":"ucpsysacv@gmail.com","driver_phone":"5569177192","driver_image":"uploads\/driver\/1510932000driver_14.jpg","driver_password":"selenia1","driver_token":"FCGxOFWrsODl7CYp","total_payment_eraned":"540","company_payment":"60","driver_payment":"","car_model_id":"3","car_number":"5367jfk","city_id":"120","license":"","license_expire":"","rc":"","rc_expire":"","insurance":"","insurance_expire":"","other_docs":"","driver_bank_name":"","driver_account_number":"","total_card_payment":"0.00","total_cash_payment":"0.00","amount_transfer_pending":"0.00","current_lat":"19.6732411","current_long":"-99.2305835","current_location":"----","last_update":"10:18","last_update_date":"Monday, Nov 20, 2017","completed_rides":"10","reject_rides":"0","cancelled_rides":"0","busy":"1","online_offline":"1","detail_status":"2","payment_transfer":"0","verification_date":"2017-11-17","verification_status":"1","driver_signup_date":"2017-11-17","driver_status_image":"http:\/\/www.apporiotaxi.com\/superadminpanel\/images\/icons8-Error-80.png","driver_status_message":"your document id in under process, You will be notified very soon","total_document_need":"12","driver_admin_status":"1","verfiy_document":"12"}}
ride_id: 65
driver_id: 14
driver_token: FCGxOFWrsODl7CYp
-------------------------
ride start to road  Api - : November 20, 2017, 10:18 am
ride_id :65
driver_id: 14
begin_lat: 19.6712625
begin_long: -99.2260819
driver_token: FCGxOFWrsODl7CYp
-------------------------
ride end Api - : November 20, 2017, 10:34 am
ride_id: 65
driver_id: 14
end_lat: 19.6731876
end_long: -99.2316223
meter_distance: 0.0
lat_long: 
-------------------------
Driver App - Login driver Api: November 20, 2017, 8:20 pm
Response: Array
(
    [driver_id] => 16
    [company_id] => 0
    [commission] => 10
    [driver_name] => ffmoto
    [driver_email] => guuf65012@gmail.com
    [driver_phone] => 5543137658
    [driver_image] => uploads/driver/1511230641driver_16.jpg
    [driver_password] => selenia1
    [driver_token] => RQmuTscQ4FcvTE2j
    [total_payment_eraned] => 0
    [company_payment] => 0
    [driver_payment] => 
    [device_id] => 
    [flag] => 0
    [rating] => 
    [car_type_id] => 2
    [car_model_id] => 3
    [car_number] => 2350JFG
    [city_id] => 120
    [register_date] => Monday, Nov 20
    [license] => 
    [license_expire] => 
    [rc] => 
    [rc_expire] => 
    [insurance] => 
    [insurance_expire] => 
    [other_docs] => 
    [driver_bank_name] => 
    [driver_account_number] => 
    [total_card_payment] => 0.00
    [total_cash_payment] => 0.00
    [amount_transfer_pending] => 0.00
    [current_lat] => 
    [current_long] => 
    [current_location] => 
    [last_update] => 
    [last_update_date] => 
    [completed_rides] => 0
    [reject_rides] => 0
    [cancelled_rides] => 0
    [login_logout] => 2
    [busy] => 0
    [online_offline] => 0
    [detail_status] => 3
    [payment_transfer] => 0
    [verification_date] => 
    [verification_status] => 0
    [unique_number] => 
    [driver_signup_date] => 2017-11-20
    [driver_status_image] => http://www.apporiotaxi.com/superadminpanel/images/icons8-Error-80.png
    [driver_status_message] => your document id in under process, You will be notified very soon
    [total_document_need] => 12
    [driver_admin_status] => 1
    [verfiy_document] => 0
    [city_name] => México
    [city_latitude] => 19.4326077
    [city_longitude] => -99.133208
    [currency] => $
    [distance] => Km
    [city_name_arabic] => 
    [city_name_french] => 
    [city_admin_status] => 1
    [car_type_name] => T-LLEVO ESTÁNDAR
    [car_model_name] => Figo
)

driver_email_phone: 5543137658
driver_password: selenia1
-------------------------
car by city api -: November 20, 2017, 8:39 pm
Response: {"result":1,"msg":"0.00760750022099","details":{"ride_id":"66","user_id":"3","coupon_code":"","pickup_lat":"19.673411829694544","pickup_long":"-99.2301507666707","pickup_location":"Del Rosal 15, Bellavista, 54710 Cuautitl\u00e1n Izcalli, M\u00e9x., Mexico","drop_lat":"19.68627218857024","drop_long":"-99.20527026057243","drop_location":"Avenida Huehuetoca 1830, Valle de la Hacienda, 54715 Cuautitl\u00e1n Izcalli, M\u00e9x., Mexico","ride_date":"Monday, Nov 20","ride_time":"20:39:06","last_time_stamp":"08:39:06 PM","ride_image":"https:maps.googleapis.com\/maps\/api\/staticmap?center=&zoom=12&size=200x200&maptype=roadmap&markers=color:green|label:S|19.673411829694544,-99.2301507666707&markers=color:red|label:D|19.68627218857024,-99.20527026057243&key=AIzaSyAIFe17P91Mfez3T6cqk7hfDSyvMO812Z4","later_date":"","later_time":"","driver_id":"0","car_type_id":"2","ride_type":"1","pem_file":"1","ride_status":"1","payment_status":"0","reason_id":"0","payment_option_id":"1","card_id":"0","ride_platform":"1","ride_admin_status":"1","date":"2017-11-20"}}
drop_lat: 19.68627218857024
drop_long: -99.20527026057243
drop_location: Avenida Huehuetoca 1830, Valle de la Hacienda, 54715 Cuautitlán Izcalli, Méx., Mexico
car_type_id:2
user_id:3
coupon_code :
pickup_lat : 19.673411829694544
pickup_long : -99.2301507666707
pickup_location :Del Rosal 15, Bellavista, 54710 Cuautitlán Izcalli, Méx., Mexico
payment_option_id :1
card_id :
pem_file :1
-------------------------
Ride Accept api -: November 20, 2017, 8:39 pm
Response: {"result":1,"msg":"Booking Accepted!!","details":{"ride_id":"66","user_id":"3","coupon_code":"","pickup_lat":"19.673411829694544","pickup_long":"-99.2301507666707","pickup_location":"Del Rosal 15, Bellavista, 54710 Cuautitl\u00e1n Izcalli, M\u00e9x., Mexico","drop_lat":"19.68627218857024","drop_long":"-99.20527026057243","drop_location":"Avenida Huehuetoca 1830, Valle de la Hacienda, 54715 Cuautitl\u00e1n Izcalli, M\u00e9x., Mexico","ride_date":"Monday, Nov 20","ride_time":"20:39:06","last_time_stamp":"08:39:09 PM","ride_image":"https:maps.googleapis.com\/maps\/api\/staticmap?center=&zoom=12&size=200x200&maptype=roadmap&markers=color:green|label:S|19.673411829694544,-99.2301507666707&markers=color:red|label:D|19.68627218857024,-99.20527026057243&key=AIzaSyAIFe17P91Mfez3T6cqk7hfDSyvMO812Z4","later_date":"","later_time":"","driver_id":"14","car_type_id":"2","ride_type":"1","pem_file":"1","ride_status":"3","payment_status":"0","reason_id":"0","payment_option_id":"1","card_id":"0","ride_platform":"1","ride_admin_status":"1","date":"2017-11-20","user_type":"1","user_name":"F Samsung Usuario .","user_email":"guuf650122@hotmail.com","user_phone":"+525546176414","user_password":"123456","user_image":"","device_id":"dWo6aDzMazs:APA91bEmKWqDYk3VAg32lkTuE7jZN28gQFNkv5AI2SenxazKlVxziVZdgb2ySau5On8dR5Y-ysKdZVsNF49lVrb3m6bIpHfIzdhvyzAeGzhibLUbaHTg1wkPJT_Eh-YzFs5WAO6NTgFx","flag":"2","wallet_money":"0","register_date":"Friday, Nov 17","referral_code":"","free_rides":"0","referral_code_send":"0","phone_verified":"0","email_verified":"0","password_created":"0","facebook_id":"","facebook_mail":"","facebook_image":"","facebook_firstname":"","facebook_lastname":"","google_id":"","google_name":"","google_mail":"","google_image":"","google_token":"","facebook_token":"","token_created":"0","login_logout":"1","rating":"1.5","user_delete":"0","unique_number":"","user_signup_type":"1","user_signup_date":"2017-11-14","status":"1","car_type_name":"T-LLEVO EST\u00c1NDAR","car_name_arabic":"","car_type_name_french":"HATCHBACK","car_type_image":"uploads\/car\/editcar_2.png","cartype_image_size":"","ride_mode":"1","car_admin_status":"1","company_id":"0","commission":"10","driver_name":"motog","driver_email":"ucpsysacv@gmail.com","driver_phone":"5569177192","driver_image":"uploads\/driver\/1510932000driver_14.jpg","driver_password":"selenia1","driver_token":"FCGxOFWrsODl7CYp","total_payment_eraned":"595.8","company_payment":"66.2","driver_payment":"","car_model_id":"3","car_number":"5367jfk","city_id":"120","license":"","license_expire":"","rc":"","rc_expire":"","insurance":"","insurance_expire":"","other_docs":"","driver_bank_name":"","driver_account_number":"","total_card_payment":"0.00","total_cash_payment":"0.00","amount_transfer_pending":"0.00","current_lat":"19.6734192","current_long":"-99.230223","current_location":"----","last_update":"20:39","last_update_date":"Monday, Nov 20, 2017","completed_rides":"11","reject_rides":"0","cancelled_rides":"0","busy":"1","online_offline":"1","detail_status":"2","payment_transfer":"0","verification_date":"2017-11-17","verification_status":"1","driver_signup_date":"2017-11-17","driver_status_image":"http:\/\/www.apporiotaxi.com\/superadminpanel\/images\/icons8-Error-80.png","driver_status_message":"your document id in under process, You will be notified very soon","total_document_need":"12","driver_admin_status":"1","verfiy_document":"12"}}
ride_id: 66
driver_id: 14
driver_token: FCGxOFWrsODl7CYp
-------------------------
ride start to road  Api - : November 20, 2017, 8:39 pm
ride_id :66
driver_id: 14
begin_lat: 19.6734801
begin_long: -99.2302282
driver_token: FCGxOFWrsODl7CYp
-------------------------
ride end Api - : November 20, 2017, 8:47 pm
ride_id: 66
driver_id: 14
end_lat: 19.6880045
end_long: -99.2260032
meter_distance: 1810.0
lat_long: 19.6737106,-99.2293721|19.674345,-99.2286371|19.6750621,-99.2280233|19.6757849,-99.2287648|19.6764676,-99.2280839|19.6772702,-99.2274867|19.678372,-99.2279146|19.6794717,-99.2277654|19.6804147,-99.2275437|19.6814131,-99.2273225|19.6823405,-99.2271222|19.6835564,-99.2267683|19.6845698,-99.226639|19.6854746,-99.2265046|19.6866427,-99.2263275|19.6875804,-99.2261645
-------------------------
