Driver App - Login driver Api: September 26, 2017, 1:30 am
Response: Array
(
    [driver_id] => 11
    [company_id] => 0
    [commission] => 0
    [driver_name] => José gutierrez
    [driver_email] => ucpsysacv@gmail.com
    [driver_phone] => 5569177192
    [driver_image] => 
    [driver_password] => natalia1
    [driver_token] => BPPENBQYoNNYAwfl
    [total_payment_eraned] => 0
    [company_payment] => 0
    [driver_payment] => 
    [device_id] => 
    [flag] => 0
    [rating] => 
    [car_type_id] => 2
    [car_model_id] => 3
    [car_number] => mmm2222
    [city_id] => 120
    [register_date] => Tuesday, Sep 26
    [license] => 
    [license_expire] => 
    [rc] => 
    [rc_expire] => 
    [insurance] => 
    [insurance_expire] => 
    [other_docs] => 
    [driver_bank_name] => 
    [driver_account_number] => 
    [total_card_payment] => 0.00
    [total_cash_payment] => 0.00
    [amount_transfer_pending] => 0.00
    [current_lat] => 
    [current_long] => 
    [current_location] => 
    [last_update] => 
    [last_update_date] => 
    [completed_rides] => 0
    [reject_rides] => 0
    [cancelled_rides] => 0
    [login_logout] => 2
    [busy] => 0
    [online_offline] => 0
    [detail_status] => 3
    [payment_transfer] => 0
    [verification_date] => 
    [verification_status] => 0
    [unique_number] => 
    [driver_signup_date] => 2017-09-26
    [driver_status_image] => http://www.apporiotaxi.com/superadminpanel/images/icons8-Error-80.png
    [driver_status_message] => your document id in under process, You will be notified very soon
    [total_document_need] => 3
    [driver_admin_status] => 1
    [verfiy_document] => 0
    [city_name] => México
    [city_latitude] => 19.4326077
    [city_longitude] => -99.133208
    [currency] => $
    [distance] => Km
    [city_name_arabic] => 
    [city_name_french] => 
    [city_admin_status] => 1
    [car_type_name] => T-LLEVO ESTÁNDAR
    [car_model_name] => Figo
)

driver_email_phone: 5569177192
driver_password: natalia1
-------------------------
Driver App - Login driver Api: September 26, 2017, 1:39 am
Response: Array
(
    [driver_id] => 11
    [company_id] => 0
    [commission] => 0
    [driver_name] => José gutierrez
    [driver_email] => ucpsysacv@gmail.com
    [driver_phone] => 5569177192
    [driver_image] => 
    [driver_password] => natalia1
    [driver_token] => OzBm0OUV7wRlDjBG
    [total_payment_eraned] => 0
    [company_payment] => 0
    [driver_payment] => 
    [device_id] => 
    [flag] => 0
    [rating] => 
    [car_type_id] => 2
    [car_model_id] => 3
    [car_number] => mmm2222
    [city_id] => 120
    [register_date] => Tuesday, Sep 26
    [license] => 
    [license_expire] => 
    [rc] => 
    [rc_expire] => 
    [insurance] => 
    [insurance_expire] => 
    [other_docs] => 
    [driver_bank_name] => 
    [driver_account_number] => 
    [total_card_payment] => 0.00
    [total_cash_payment] => 0.00
    [amount_transfer_pending] => 0.00
    [current_lat] => 
    [current_long] => 
    [current_location] => 
    [last_update] => 
    [last_update_date] => 
    [completed_rides] => 0
    [reject_rides] => 0
    [cancelled_rides] => 0
    [login_logout] => 1
    [busy] => 0
    [online_offline] => 0
    [detail_status] => 2
    [payment_transfer] => 0
    [verification_date] => 2017-09-26
    [verification_status] => 1
    [unique_number] => 
    [driver_signup_date] => 2017-09-26
    [driver_status_image] => http://www.apporiotaxi.com/superadminpanel/images/icons8-Error-80.png
    [driver_status_message] => your document id in under process, You will be notified very soon
    [total_document_need] => 3
    [driver_admin_status] => 1
    [verfiy_document] => 3
    [city_name] => México
    [city_latitude] => 19.4326077
    [city_longitude] => -99.133208
    [currency] => $
    [distance] => Km
    [city_name_arabic] => 
    [city_name_french] => 
    [city_admin_status] => 1
    [car_type_name] => T-LLEVO ESTÁNDAR
    [car_model_name] => Figo
)

driver_email_phone: 5569177192
driver_password: natalia1
-------------------------
Driver App - Login driver Api: September 26, 2017, 1:54 am
Response: Array
(
    [driver_id] => 8
    [company_id] => 0
    [commission] => 20
    [driver_name] => JOSE FLORENCIO GUTIERREZ URIBE
    [driver_email] => guuf650122@hotmail.com
    [driver_phone] => 5546176414
    [driver_image] => 
    [driver_password] => natalia1
    [driver_token] => Z6wwYLS1WqhXfXC7
    [total_payment_eraned] => 365.2
    [company_payment] => 0
    [driver_payment] => 
    [device_id] => dQOwUlPF80Q:APA91bFM9174lCSL1r1xKCvHZTzp2-JkXnExFuFjqOGL4ZsFa441PVhuK-JY4p9Ju0ZESf9h7Ecunr90gDY_PIpWneOcRtmjSsGSwZSv1Wsf0SeZMkxWYyHaz6zPj6GbKpj4iBpXUnn7
    [flag] => 2
    [rating] => 2.8
    [car_type_id] => 2
    [car_model_id] => 3
    [car_number] => 1
    [city_id] => 120
    [register_date] => Friday, Sep 15
    [license] => 
    [license_expire] => 
    [rc] => 
    [rc_expire] => 
    [insurance] => 
    [insurance_expire] => 
    [other_docs] => 
    [driver_bank_name] => 
    [driver_account_number] => 
    [total_card_payment] => 0.00
    [total_cash_payment] => 0.00
    [amount_transfer_pending] => 0.00
    [current_lat] => 19.6732702
    [current_long] => -99.230293
    [current_location] => ----
    [last_update] => 16:09
    [last_update_date] => Saturday, Sep 23, 2017
    [completed_rides] => 5
    [reject_rides] => 0
    [cancelled_rides] => 0
    [login_logout] => 1
    [busy] => 0
    [online_offline] => 1
    [detail_status] => 2
    [payment_transfer] => 0
    [verification_date] => 2017-09-18
    [verification_status] => 1
    [unique_number] => 
    [driver_signup_date] => 2017-09-15
    [driver_status_image] => http://www.apporiotaxi.com/superadminpanel/images/icons8-Error-80.png
    [driver_status_message] => your document id in under process, You will be notified very soon
    [total_document_need] => 0
    [driver_admin_status] => 1
    [verfiy_document] => 0
    [city_name] => México
    [city_latitude] => 19.4326077
    [city_longitude] => -99.133208
    [currency] => $
    [distance] => Km
    [city_name_arabic] => 
    [city_name_french] => 
    [city_admin_status] => 1
    [car_type_name] => T-LLEVO ESTÁNDAR
    [car_model_name] => Figo
)

driver_email_phone: 5546176414
driver_password: natalia1
-------------------------
car by city api -: September 26, 2017, 1:59 am
Response: {"result":1,"msg":"0.100896362293","details":{"ride_id":"17","user_id":"7","coupon_code":"","pickup_lat":"19.674160995934233","pickup_long":"-99.230476655066","pickup_location":"Av. Emiliano Zapata 18, San Jose Buenavista, 54710 Cuautitl\u00e1n Izcalli, M\u00e9x., Mexico","drop_lat":"19.479504199999997","drop_long":"-99.1393107","drop_location":"Terminal Central de Autobuses del Norte","ride_date":"Tuesday, Sep 26","ride_time":"01:59:39","last_time_stamp":"01:59:39 AM","ride_image":"https:maps.googleapis.com\/maps\/api\/staticmap?center=&zoom=12&size=200x200&maptype=roadmap&markers=color:green|label:S|19.674160995934233,-99.230476655066&markers=color:red|label:D|19.479504199999997,-99.1393107&key=AIzaSyAIFe17P91Mfez3T6cqk7hfDSyvMO812Z4","later_date":"","later_time":"","driver_id":"0","car_type_id":"2","ride_type":"1","pem_file":"1","ride_status":"1","payment_status":"0","reason_id":"0","payment_option_id":"1","card_id":"0","ride_platform":"1","ride_admin_status":"1","date":"2017-09-26"}}
drop_lat: 19.479504199999997
drop_long: -99.1393107
drop_location: Terminal Central de Autobuses del Norte
car_type_id:2
user_id:7
coupon_code :
pickup_lat : 19.674160995934233
pickup_long : -99.230476655066
pickup_location :Av. Emiliano Zapata 18, San Jose Buenavista, 54710 Cuautitlán Izcalli, Méx., Mexico
payment_option_id :1
card_id :
pem_file :1
-------------------------
Ride Accept api -: September 26, 2017, 1:59 am
Response: {"result":1,"msg":"Booking Accepted!!","details":{"ride_id":"17","user_id":"7","coupon_code":"","pickup_lat":"19.674160995934233","pickup_long":"-99.230476655066","pickup_location":"Av. Emiliano Zapata 18, San Jose Buenavista, 54710 Cuautitl\u00e1n Izcalli, M\u00e9x., Mexico","drop_lat":"19.479504199999997","drop_long":"-99.1393107","drop_location":"Terminal Central de Autobuses del Norte","ride_date":"Tuesday, Sep 26","ride_time":"01:59:39","last_time_stamp":"01:59:52 AM","ride_image":"https:maps.googleapis.com\/maps\/api\/staticmap?center=&zoom=12&size=200x200&maptype=roadmap&markers=color:green|label:S|19.674160995934233,-99.230476655066&markers=color:red|label:D|19.479504199999997,-99.1393107&key=AIzaSyAIFe17P91Mfez3T6cqk7hfDSyvMO812Z4","later_date":"","later_time":"","driver_id":"11","car_type_id":"2","ride_type":"1","pem_file":"1","ride_status":"3","payment_status":"0","reason_id":"0","payment_option_id":"1","card_id":"0","ride_platform":"1","ride_admin_status":"1","date":"2017-09-26","user_type":"1","user_name":"Florencio .","user_email":"guuf650122@gmail.com","user_phone":"+525527270885","user_password":"natalia1","user_image":"","device_id":"fEgoBdoSotk:APA91bE2ndfbfGe610HZkALQkhjiNttoQk0sMmCBIqNN8oWXzRGsn2kIlGv4eJJglQzlx5C0GmWRVQ6XaJjiq6VR-TFXrxGF_V081vEVF57BhxAZn_3I04sePnxW3Ayb5nQRgYt2c0Ro","flag":"2","wallet_money":"0","register_date":"Tuesday, Sep 26","referral_code":"","free_rides":"0","referral_code_send":"0","phone_verified":"0","email_verified":"0","password_created":"0","facebook_id":"","facebook_mail":"","facebook_image":"","facebook_firstname":"","facebook_lastname":"","google_id":"","google_name":"","google_mail":"","google_image":"","google_token":"","facebook_token":"","token_created":"0","login_logout":"1","rating":"","user_delete":"0","unique_number":"","user_signup_type":"1","user_signup_date":"2017-09-23","status":"1","car_type_name":"T-LLEVO EST\u00c1NDAR","car_name_arabic":"","car_type_name_french":"HATCHBACK","car_type_image":"uploads\/car\/editcar_2.png","cartype_image_size":"","ride_mode":"1","car_admin_status":"1","company_id":"0","commission":"0","driver_name":"Jos\u00e9 gutierrez","driver_email":"ucpsysacv@gmail.com","driver_phone":"5569177192","driver_image":"","driver_password":"natalia1","driver_token":"OzBm0OUV7wRlDjBG","total_payment_eraned":"0","company_payment":"0","driver_payment":"","car_model_id":"3","car_number":"mmm2222","city_id":"120","license":"","license_expire":"","rc":"","rc_expire":"","insurance":"","insurance_expire":"","other_docs":"","driver_bank_name":"","driver_account_number":"","total_card_payment":"0.00","total_cash_payment":"0.00","amount_transfer_pending":"0.00","current_lat":"19.6732702","current_long":"-99.230293","current_location":"----","last_update":"01:59","last_update_date":"Tuesday, Sep 26, 2017","completed_rides":"0","reject_rides":"0","cancelled_rides":"0","busy":"1","online_offline":"1","detail_status":"2","payment_transfer":"0","verification_date":"2017-09-26","verification_status":"1","driver_signup_date":"2017-09-26","driver_status_image":"http:\/\/www.apporiotaxi.com\/superadminpanel\/images\/icons8-Error-80.png","driver_status_message":"your document id in under process, You will be notified very soon","total_document_need":"3","driver_admin_status":"1","verfiy_document":"3"}}
ride_id: 17
driver_id: 11
driver_token: OzBm0OUV7wRlDjBG
-------------------------
ride start to road  Api - : September 26, 2017, 2:00 am
ride_id :17
driver_id: 11
begin_lat: 19.673291
begin_long: -99.2302902
driver_token: OzBm0OUV7wRlDjBG
-------------------------
ride end Api - : September 26, 2017, 2:01 am
ride_id: 17
driver_id: 11
end_lat: 19.6732822
end_long: -99.230294
meter_distance: 0.0
lat_long: 
-------------------------
car by city api -: September 26, 2017, 2:03 am
Response: {"result":1,"msg":"0.102892738341","details":{"ride_id":"18","user_id":"7","coupon_code":"","pickup_lat":"19.674160995934233","pickup_long":"-99.230476655066","pickup_location":"Av. Emiliano Zapata 18, San Jose Buenavista, 54710 Cuautitl\u00e1n Izcalli, M\u00e9x., Mexico","drop_lat":"19.479504199999997","drop_long":"-99.1393107","drop_location":"Terminal Central de Autobuses del Norte","ride_date":"Tuesday, Sep 26","ride_time":"02:03:49","last_time_stamp":"02:03:49 AM","ride_image":"https:maps.googleapis.com\/maps\/api\/staticmap?center=&zoom=12&size=200x200&maptype=roadmap&markers=color:green|label:S|19.674160995934233,-99.230476655066&markers=color:red|label:D|19.479504199999997,-99.1393107&key=AIzaSyAIFe17P91Mfez3T6cqk7hfDSyvMO812Z4","later_date":"","later_time":"","driver_id":"0","car_type_id":"2","ride_type":"1","pem_file":"1","ride_status":"1","payment_status":"0","reason_id":"0","payment_option_id":"1","card_id":"0","ride_platform":"1","ride_admin_status":"1","date":"2017-09-26"}}
drop_lat: 19.479504199999997
drop_long: -99.1393107
drop_location: Terminal Central de Autobuses del Norte
car_type_id:2
user_id:7
coupon_code :
pickup_lat : 19.674160995934233
pickup_long : -99.230476655066
pickup_location :Av. Emiliano Zapata 18, San Jose Buenavista, 54710 Cuautitlán Izcalli, Méx., Mexico
payment_option_id :1
card_id :
pem_file :1
-------------------------
Ride Accept api -: September 26, 2017, 2:04 am
Response: {"result":1,"msg":"Booking Accepted!!","details":{"ride_id":"18","user_id":"7","coupon_code":"","pickup_lat":"19.674160995934233","pickup_long":"-99.230476655066","pickup_location":"Av. Emiliano Zapata 18, San Jose Buenavista, 54710 Cuautitl\u00e1n Izcalli, M\u00e9x., Mexico","drop_lat":"19.479504199999997","drop_long":"-99.1393107","drop_location":"Terminal Central de Autobuses del Norte","ride_date":"Tuesday, Sep 26","ride_time":"02:03:49","last_time_stamp":"02:04:09 AM","ride_image":"https:maps.googleapis.com\/maps\/api\/staticmap?center=&zoom=12&size=200x200&maptype=roadmap&markers=color:green|label:S|19.674160995934233,-99.230476655066&markers=color:red|label:D|19.479504199999997,-99.1393107&key=AIzaSyAIFe17P91Mfez3T6cqk7hfDSyvMO812Z4","later_date":"","later_time":"","driver_id":"8","car_type_id":"2","ride_type":"1","pem_file":"1","ride_status":"3","payment_status":"0","reason_id":"0","payment_option_id":"1","card_id":"0","ride_platform":"1","ride_admin_status":"1","date":"2017-09-26","user_type":"1","user_name":"Florencio .","user_email":"guuf650122@gmail.com","user_phone":"+525527270885","user_password":"natalia1","user_image":"","device_id":"faZVha_LxO4:APA91bFEuEY1NZ-TBJnRJOy9Brp4xafOV7OtrJPDngAiPrRpxzxT0MP0jzVrEA8CpjGaFHgYwJG_7keUVvzgD_4sDo8PTPZ85LlK_g6MfDncCqgy3VDwW8y4AhPRtZz06Gqb2TnwyIMO","flag":"2","wallet_money":"0","register_date":"Friday, Sep 15","referral_code":"","free_rides":"0","referral_code_send":"0","phone_verified":"0","email_verified":"0","password_created":"0","facebook_id":"","facebook_mail":"","facebook_image":"","facebook_firstname":"","facebook_lastname":"","google_id":"","google_name":"","google_mail":"","google_image":"","google_token":"","facebook_token":"","token_created":"0","login_logout":"1","rating":"2.8","user_delete":"0","unique_number":"","user_signup_type":"1","user_signup_date":"2017-09-23","status":"1","car_type_name":"T-LLEVO EST\u00c1NDAR","car_name_arabic":"","car_type_name_french":"HATCHBACK","car_type_image":"uploads\/car\/editcar_2.png","cartype_image_size":"","ride_mode":"1","car_admin_status":"1","company_id":"0","commission":"20","driver_name":"JOSE FLORENCIO GUTIERREZ URIBE","driver_email":"guuf650122@hotmail.com","driver_phone":"5546176414","driver_image":"","driver_password":"natalia1","driver_token":"Z6wwYLS1WqhXfXC7","total_payment_eraned":"365.2","company_payment":"0","driver_payment":"","car_model_id":"3","car_number":"1","city_id":"120","license":"","license_expire":"","rc":"","rc_expire":"","insurance":"","insurance_expire":"","other_docs":"","driver_bank_name":"","driver_account_number":"","total_card_payment":"0.00","total_cash_payment":"0.00","amount_transfer_pending":"0.00","current_lat":"19.6732678","current_long":"-99.2302913","current_location":"----","last_update":"02:04","last_update_date":"Tuesday, Sep 26, 2017","completed_rides":"5","reject_rides":"0","cancelled_rides":"0","busy":"1","online_offline":"1","detail_status":"2","payment_transfer":"0","verification_date":"2017-09-18","verification_status":"1","driver_signup_date":"2017-09-15","driver_status_image":"http:\/\/www.apporiotaxi.com\/superadminpanel\/images\/icons8-Error-80.png","driver_status_message":"your document id in under process, You will be notified very soon","total_document_need":"0","driver_admin_status":"1","verfiy_document":"0"}}
ride_id: 18
driver_id: 11
driver_token: Z6wwYLS1WqhXfXC7
-------------------------
ride start to road  Api - : September 26, 2017, 2:04 am
ride_id :18
driver_id: 8
begin_lat: 19.6732718
begin_long: -99.23036
driver_token: Z6wwYLS1WqhXfXC7
-------------------------
ride end Api - : September 26, 2017, 2:13 am
ride_id: 18
driver_id: 8
end_lat: 19.6732718
end_long: -99.23036
meter_distance: 0.0
lat_long: 
-------------------------
car by city api -: September 26, 2017, 2:15 am
Response: {"result":1,"msg":"0.0216310871586","details":{"ride_id":"19","user_id":"7","coupon_code":"","pickup_lat":"19.673098650017742","pickup_long":"-99.23044279217719","pickup_location":"Av. del Trabajo 18, Bellavista, 54710 Cuautitl\u00e1n Izcalli, M\u00e9x., Mexico","drop_lat":"19.6465579226882","drop_long":"-99.22144901007414","drop_location":"Mira Azul 64, Cumbria, 54740 Cuautitl\u00e1n Izcalli, M\u00e9x., Mexico","ride_date":"Tuesday, Sep 26","ride_time":"02:15:03","last_time_stamp":"02:15:03 AM","ride_image":"https:maps.googleapis.com\/maps\/api\/staticmap?center=&zoom=12&size=200x200&maptype=roadmap&markers=color:green|label:S|19.673098650017742,-99.23044279217719&markers=color:red|label:D|19.6465579226882,-99.22144901007414&key=AIzaSyAIFe17P91Mfez3T6cqk7hfDSyvMO812Z4","later_date":"","later_time":"","driver_id":"0","car_type_id":"2","ride_type":"1","pem_file":"1","ride_status":"1","payment_status":"0","reason_id":"0","payment_option_id":"1","card_id":"0","ride_platform":"1","ride_admin_status":"1","date":"2017-09-26"}}
drop_lat: 19.6465579226882
drop_long: -99.22144901007414
drop_location: Mira Azul 64, Cumbria, 54740 Cuautitlán Izcalli, Méx., Mexico
car_type_id:2
user_id:7
coupon_code :
pickup_lat : 19.673098650017742
pickup_long : -99.23044279217719
pickup_location :Av. del Trabajo 18, Bellavista, 54710 Cuautitlán Izcalli, Méx., Mexico
payment_option_id :1
card_id :
pem_file :1
-------------------------
Ride Accept api -: September 26, 2017, 2:15 am
Response: {"result":1,"msg":"Booking Accepted!!","details":{"ride_id":"19","user_id":"7","coupon_code":"","pickup_lat":"19.673098650017742","pickup_long":"-99.23044279217719","pickup_location":"Av. del Trabajo 18, Bellavista, 54710 Cuautitl\u00e1n Izcalli, M\u00e9x., Mexico","drop_lat":"19.6465579226882","drop_long":"-99.22144901007414","drop_location":"Mira Azul 64, Cumbria, 54740 Cuautitl\u00e1n Izcalli, M\u00e9x., Mexico","ride_date":"Tuesday, Sep 26","ride_time":"02:15:03","last_time_stamp":"02:15:22 AM","ride_image":"https:maps.googleapis.com\/maps\/api\/staticmap?center=&zoom=12&size=200x200&maptype=roadmap&markers=color:green|label:S|19.673098650017742,-99.23044279217719&markers=color:red|label:D|19.6465579226882,-99.22144901007414&key=AIzaSyAIFe17P91Mfez3T6cqk7hfDSyvMO812Z4","later_date":"","later_time":"","driver_id":"8","car_type_id":"2","ride_type":"1","pem_file":"1","ride_status":"3","payment_status":"0","reason_id":"0","payment_option_id":"1","card_id":"0","ride_platform":"1","ride_admin_status":"1","date":"2017-09-26","user_type":"1","user_name":"Florencio .","user_email":"guuf650122@gmail.com","user_phone":"+525527270885","user_password":"natalia1","user_image":"","device_id":"faZVha_LxO4:APA91bFEuEY1NZ-TBJnRJOy9Brp4xafOV7OtrJPDngAiPrRpxzxT0MP0jzVrEA8CpjGaFHgYwJG_7keUVvzgD_4sDo8PTPZ85LlK_g6MfDncCqgy3VDwW8y4AhPRtZz06Gqb2TnwyIMO","flag":"2","wallet_money":"0","register_date":"Friday, Sep 15","referral_code":"","free_rides":"0","referral_code_send":"0","phone_verified":"0","email_verified":"0","password_created":"0","facebook_id":"","facebook_mail":"","facebook_image":"","facebook_firstname":"","facebook_lastname":"","google_id":"","google_name":"","google_mail":"","google_image":"","google_token":"","facebook_token":"","token_created":"0","login_logout":"1","rating":"3.08333333333","user_delete":"0","unique_number":"","user_signup_type":"1","user_signup_date":"2017-09-23","status":"1","car_type_name":"T-LLEVO EST\u00c1NDAR","car_name_arabic":"","car_type_name_french":"HATCHBACK","car_type_image":"uploads\/car\/editcar_2.png","cartype_image_size":"","ride_mode":"1","car_admin_status":"1","company_id":"0","commission":"20","driver_name":"JOSE FLORENCIO GUTIERREZ URIBE","driver_email":"guuf650122@hotmail.com","driver_phone":"5546176414","driver_image":"","driver_password":"natalia1","driver_token":"Z6wwYLS1WqhXfXC7","total_payment_eraned":"430.4","company_payment":"16.3","driver_payment":"","car_model_id":"3","car_number":"1","city_id":"120","license":"","license_expire":"","rc":"","rc_expire":"","insurance":"","insurance_expire":"","other_docs":"","driver_bank_name":"","driver_account_number":"","total_card_payment":"0.00","total_cash_payment":"0.00","amount_transfer_pending":"0.00","current_lat":"19.6732702","current_long":"-99.230293","current_location":"----","last_update":"02:15","last_update_date":"Tuesday, Sep 26, 2017","completed_rides":"6","reject_rides":"0","cancelled_rides":"0","busy":"1","online_offline":"1","detail_status":"2","payment_transfer":"0","verification_date":"2017-09-18","verification_status":"1","driver_signup_date":"2017-09-15","driver_status_image":"http:\/\/www.apporiotaxi.com\/superadminpanel\/images\/icons8-Error-80.png","driver_status_message":"your document id in under process, You will be notified very soon","total_document_need":"0","driver_admin_status":"1","verfiy_document":"0"}}
ride_id: 19
driver_id: 11
driver_token: Z6wwYLS1WqhXfXC7
-------------------------
ride start to road  Api - : September 26, 2017, 2:15 am
ride_id :19
driver_id: 8
begin_lat: 19.6732718
begin_long: -99.23036
driver_token: Z6wwYLS1WqhXfXC7
-------------------------
car by city api -: September 26, 2017, 2:23 am
Response: {"result":1,"msg":"0.0305933334703","details":{"ride_id":"20","user_id":"8","coupon_code":"","pickup_lat":"19.67327007808196","pickup_long":"-99.2302929237485","pickup_location":"Av. del Trabajo 20, Bellavista, 54710 Cuautitl\u00e1n Izcalli, M\u00e9x., Mexico","drop_lat":"","drop_long":"","drop_location":"Ingresa Punto Destino","ride_date":"Tuesday, Sep 26","ride_time":"02:23:02","last_time_stamp":"02:23:02 AM","ride_image":"https:maps.googleapis.com\/maps\/api\/staticmap?center=&zoom=12&size=200x200&maptype=roadmap&markers=color:green|label:S|19.67327007808196,-99.2302929237485&markers=color:red|label:D|,&key=AIzaSyAIFe17P91Mfez3T6cqk7hfDSyvMO812Z4","later_date":"","later_time":"","driver_id":"0","car_type_id":"2","ride_type":"1","pem_file":"1","ride_status":"1","payment_status":"0","reason_id":"0","payment_option_id":"1","card_id":"0","ride_platform":"1","ride_admin_status":"1","date":"2017-09-26"}}
drop_lat: 
drop_long: 
drop_location: Ingresa Punto Destino
car_type_id:2
user_id:8
coupon_code :
pickup_lat : 19.67327007808196
pickup_long : -99.2302929237485
pickup_location :Av. del Trabajo 20, Bellavista, 54710 Cuautitlán Izcalli, Méx., Mexico
payment_option_id :1
card_id :
pem_file :1
-------------------------
car by city api -: September 26, 2017, 2:26 am
Response: {"result":1,"msg":"0","details":{"ride_id":"21","user_id":"8","coupon_code":"","pickup_lat":"19.67327007808196","pickup_long":"-99.2302929237485","pickup_location":"Av. del Trabajo 20, Bellavista, 54710 Cuautitl\u00e1n Izcalli, M\u00e9x., Mexico","drop_lat":"19.68825275055842","drop_long":"-99.22600038349628","drop_location":"Arc\u00e1ngel San Miguel 78P, Axotlan, Bosques de Hacienda, 54715 Cuautitl\u00e1n Izcalli, M\u00e9x., Mexico","ride_date":"Tuesday, Sep 26","ride_time":"02:26:22","last_time_stamp":"02:26:22 AM","ride_image":"https:maps.googleapis.com\/maps\/api\/staticmap?center=&zoom=12&size=200x200&maptype=roadmap&markers=color:green|label:S|19.67327007808196,-99.2302929237485&markers=color:red|label:D|19.68825275055842,-99.22600038349628&key=AIzaSyAIFe17P91Mfez3T6cqk7hfDSyvMO812Z4","later_date":"","later_time":"","driver_id":"0","car_type_id":"2","ride_type":"1","pem_file":"1","ride_status":"1","payment_status":"0","reason_id":"0","payment_option_id":"1","card_id":"0","ride_platform":"1","ride_admin_status":"1","date":"2017-09-26"}}
drop_lat: 19.68825275055842
drop_long: -99.22600038349628
drop_location: Arcángel San Miguel 78P, Axotlan, Bosques de Hacienda, 54715 Cuautitlán Izcalli, Méx., Mexico
car_type_id:2
user_id:8
coupon_code :
pickup_lat : 19.67327007808196
pickup_long : -99.2302929237485
pickup_location :Av. del Trabajo 20, Bellavista, 54710 Cuautitlán Izcalli, Méx., Mexico
payment_option_id :1
card_id :
pem_file :1
-------------------------
Ride Accept api -: September 26, 2017, 2:26 am
Response: {"result":1,"msg":"Booking Accepted!!","details":{"ride_id":"21","user_id":"8","coupon_code":"","pickup_lat":"19.67327007808196","pickup_long":"-99.2302929237485","pickup_location":"Av. del Trabajo 20, Bellavista, 54710 Cuautitl\u00e1n Izcalli, M\u00e9x., Mexico","drop_lat":"19.68825275055842","drop_long":"-99.22600038349628","drop_location":"Arc\u00e1ngel San Miguel 78P, Axotlan, Bosques de Hacienda, 54715 Cuautitl\u00e1n Izcalli, M\u00e9x., Mexico","ride_date":"Tuesday, Sep 26","ride_time":"02:26:22","last_time_stamp":"02:26:30 AM","ride_image":"https:maps.googleapis.com\/maps\/api\/staticmap?center=&zoom=12&size=200x200&maptype=roadmap&markers=color:green|label:S|19.67327007808196,-99.2302929237485&markers=color:red|label:D|19.68825275055842,-99.22600038349628&key=AIzaSyAIFe17P91Mfez3T6cqk7hfDSyvMO812Z4","later_date":"","later_time":"","driver_id":"11","car_type_id":"2","ride_type":"1","pem_file":"1","ride_status":"3","payment_status":"0","reason_id":"0","payment_option_id":"1","card_id":"0","ride_platform":"1","ride_admin_status":"1","date":"2017-09-26","user_type":"1","user_name":"huawey .","user_email":"ucpsysacv@gmail.com","user_phone":"+525569177192","user_password":"natalia1","user_image":"","device_id":"fEgoBdoSotk:APA91bE2ndfbfGe610HZkALQkhjiNttoQk0sMmCBIqNN8oWXzRGsn2kIlGv4eJJglQzlx5C0GmWRVQ6XaJjiq6VR-TFXrxGF_V081vEVF57BhxAZn_3I04sePnxW3Ayb5nQRgYt2c0Ro","flag":"2","wallet_money":"0","register_date":"Tuesday, Sep 26","referral_code":"","free_rides":"0","referral_code_send":"0","phone_verified":"0","email_verified":"0","password_created":"0","facebook_id":"","facebook_mail":"","facebook_image":"","facebook_firstname":"","facebook_lastname":"","google_id":"","google_name":"","google_mail":"","google_image":"","google_token":"","facebook_token":"","token_created":"0","login_logout":"1","rating":"","user_delete":"0","unique_number":"","user_signup_type":"1","user_signup_date":"2017-09-26","status":"1","car_type_name":"T-LLEVO EST\u00c1NDAR","car_name_arabic":"","car_type_name_french":"HATCHBACK","car_type_image":"uploads\/car\/editcar_2.png","cartype_image_size":"","ride_mode":"1","car_admin_status":"1","company_id":"0","commission":"0","driver_name":"Jos\u00e9 gutierrez","driver_email":"ucpsysacv@gmail.com","driver_phone":"5569177192","driver_image":"","driver_password":"natalia1","driver_token":"OzBm0OUV7wRlDjBG","total_payment_eraned":"53.5","company_payment":"0","driver_payment":"","car_model_id":"3","car_number":"mmm2222","city_id":"120","license":"","license_expire":"","rc":"","rc_expire":"","insurance":"","insurance_expire":"","other_docs":"","driver_bank_name":"","driver_account_number":"","total_card_payment":"0.00","total_cash_payment":"0.00","amount_transfer_pending":"0.00","current_lat":"19.6732702","current_long":"-99.230293","current_location":"----","last_update":"02:26","last_update_date":"Tuesday, Sep 26, 2017","completed_rides":"1","reject_rides":"0","cancelled_rides":"0","busy":"1","online_offline":"1","detail_status":"2","payment_transfer":"0","verification_date":"2017-09-26","verification_status":"1","driver_signup_date":"2017-09-26","driver_status_image":"http:\/\/www.apporiotaxi.com\/superadminpanel\/images\/icons8-Error-80.png","driver_status_message":"your document id in under process, You will be notified very soon","total_document_need":"3","driver_admin_status":"1","verfiy_document":"3"}}
ride_id: 21
driver_id: 11
driver_token: OzBm0OUV7wRlDjBG
-------------------------
ride start to road  Api - : September 26, 2017, 2:27 am
ride_id :21
driver_id: 11
begin_lat: 19.6732702
begin_long: -99.230293
driver_token: OzBm0OUV7wRlDjBG
-------------------------
ride end Api - : September 26, 2017, 3:00 am
ride_id: 19
driver_id: 8
end_lat: 19.674346
end_long: -99.2285816
meter_distance: 0.0
lat_long: 19.6741164,-99.2290144
-------------------------
car by city api -: September 26, 2017, 3:01 am
Response: {"result":1,"msg":"0.218572848202","details":{"ride_id":"22","user_id":"7","coupon_code":"","pickup_lat":"19.67327007808196","pickup_long":"-99.2302929237485","pickup_location":"Av. del Trabajo 20, Bellavista, 54710 Cuautitl\u00e1n Izcalli, M\u00e9x., Mexico","drop_lat":"19.68839701431734","drop_long":"-99.22584850341082","drop_location":"Arc\u00e1ngel San Miguel 78P, Axotlan, Bosques de Hacienda, 54715 Cuautitl\u00e1n Izcalli, M\u00e9x., Mexico","ride_date":"Tuesday, Sep 26","ride_time":"03:01:08","last_time_stamp":"03:01:08 AM","ride_image":"https:maps.googleapis.com\/maps\/api\/staticmap?center=&zoom=12&size=200x200&maptype=roadmap&markers=color:green|label:S|19.67327007808196,-99.2302929237485&markers=color:red|label:D|19.68839701431734,-99.22584850341082&key=AIzaSyAIFe17P91Mfez3T6cqk7hfDSyvMO812Z4","later_date":"","later_time":"","driver_id":"0","car_type_id":"2","ride_type":"1","pem_file":"1","ride_status":"1","payment_status":"0","reason_id":"0","payment_option_id":"1","card_id":"0","ride_platform":"1","ride_admin_status":"1","date":"2017-09-26"}}
drop_lat: 19.68839701431734
drop_long: -99.22584850341082
drop_location: Arcángel San Miguel 78P, Axotlan, Bosques de Hacienda, 54715 Cuautitlán Izcalli, Méx., Mexico
car_type_id:2
user_id:7
coupon_code :
pickup_lat : 19.67327007808196
pickup_long : -99.2302929237485
pickup_location :Av. del Trabajo 20, Bellavista, 54710 Cuautitlán Izcalli, Méx., Mexico
payment_option_id :1
card_id :
pem_file :1
-------------------------
Ride Accept api -: September 26, 2017, 3:01 am
Response: {"result":1,"msg":"Booking Accepted!!","details":{"ride_id":"22","user_id":"7","coupon_code":"","pickup_lat":"19.67327007808196","pickup_long":"-99.2302929237485","pickup_location":"Av. del Trabajo 20, Bellavista, 54710 Cuautitl\u00e1n Izcalli, M\u00e9x., Mexico","drop_lat":"19.68839701431734","drop_long":"-99.22584850341082","drop_location":"Arc\u00e1ngel San Miguel 78P, Axotlan, Bosques de Hacienda, 54715 Cuautitl\u00e1n Izcalli, M\u00e9x., Mexico","ride_date":"Tuesday, Sep 26","ride_time":"03:01:08","last_time_stamp":"03:01:16 AM","ride_image":"https:maps.googleapis.com\/maps\/api\/staticmap?center=&zoom=12&size=200x200&maptype=roadmap&markers=color:green|label:S|19.67327007808196,-99.2302929237485&markers=color:red|label:D|19.68839701431734,-99.22584850341082&key=AIzaSyAIFe17P91Mfez3T6cqk7hfDSyvMO812Z4","later_date":"","later_time":"","driver_id":"8","car_type_id":"2","ride_type":"1","pem_file":"1","ride_status":"3","payment_status":"0","reason_id":"0","payment_option_id":"1","card_id":"0","ride_platform":"1","ride_admin_status":"1","date":"2017-09-26","user_type":"1","user_name":"Florencio .","user_email":"guuf650122@gmail.com","user_phone":"+525527270885","user_password":"natalia1","user_image":"","device_id":"faZVha_LxO4:APA91bFEuEY1NZ-TBJnRJOy9Brp4xafOV7OtrJPDngAiPrRpxzxT0MP0jzVrEA8CpjGaFHgYwJG_7keUVvzgD_4sDo8PTPZ85LlK_g6MfDncCqgy3VDwW8y4AhPRtZz06Gqb2TnwyIMO","flag":"2","wallet_money":"0","register_date":"Friday, Sep 15","referral_code":"","free_rides":"0","referral_code_send":"0","phone_verified":"0","email_verified":"0","password_created":"0","facebook_id":"","facebook_mail":"","facebook_image":"","facebook_firstname":"","facebook_lastname":"","google_id":"","google_name":"","google_mail":"","google_image":"","google_token":"","facebook_token":"","token_created":"0","login_logout":"1","rating":"3.35714285714","user_delete":"0","unique_number":"","user_signup_type":"1","user_signup_date":"2017-09-23","status":"1","car_type_name":"T-LLEVO EST\u00c1NDAR","car_name_arabic":"","car_type_name_french":"HATCHBACK","car_type_image":"uploads\/car\/editcar_2.png","cartype_image_size":"","ride_mode":"1","car_admin_status":"1","company_id":"0","commission":"20","driver_name":"JOSE FLORENCIO GUTIERREZ URIBE","driver_email":"guuf650122@hotmail.com","driver_phone":"5546176414","driver_image":"","driver_password":"natalia1","driver_token":"Z6wwYLS1WqhXfXC7","total_payment_eraned":"593.6","company_payment":"57.1","driver_payment":"","car_model_id":"3","car_number":"1","city_id":"120","license":"","license_expire":"","rc":"","rc_expire":"","insurance":"","insurance_expire":"","other_docs":"","driver_bank_name":"","driver_account_number":"","total_card_payment":"0.00","total_cash_payment":"0.00","amount_transfer_pending":"0.00","current_lat":"19.6743811","current_long":"-99.2285707","current_location":"----","last_update":"03:01","last_update_date":"Tuesday, Sep 26, 2017","completed_rides":"7","reject_rides":"0","cancelled_rides":"0","busy":"1","online_offline":"1","detail_status":"2","payment_transfer":"0","verification_date":"2017-09-18","verification_status":"1","driver_signup_date":"2017-09-15","driver_status_image":"http:\/\/www.apporiotaxi.com\/superadminpanel\/images\/icons8-Error-80.png","driver_status_message":"your document id in under process, You will be notified very soon","total_document_need":"0","driver_admin_status":"1","verfiy_document":"0"}}
ride_id: 22
driver_id: 8
driver_token: Z6wwYLS1WqhXfXC7
-------------------------
ride start to road  Api - : September 26, 2017, 3:01 am
ride_id :22
driver_id: 8
begin_lat: 19.6744173
begin_long: -99.2285383
driver_token: Z6wwYLS1WqhXfXC7
-------------------------
ride end Api - : September 26, 2017, 3:11 am
ride_id: 22
driver_id: 8
end_lat: 19.6877915
end_long: -99.2259412
meter_distance: 1450.0
lat_long: 19.6749231,-99.2281054|19.675882,-99.2287114|19.6787006,-99.2280838|19.6813175,-99.227348|19.6830185,-99.2269584|19.684293,-99.2265797|19.6863953,-99.2262226
-------------------------
