snap to road  Api - : October 29, 2017, 2:42 am
ride_id :221
start: 
finish: 
lat_long_from_application :19.6906066,-99.2259164|19.6918128,-99.2256352|19.6926853,-99.2251784|19.6921191,-99.2259406
waypoints: 
Snaptoroad api input: 19.6893904,-99.2258333|19.6906066,-99.2259164|19.6918128,-99.2256352|19.6926853,-99.2251784|19.6921191,-99.2259406|19.6917821,-99.2259862
Snaptoroad api output: 
distnce: 0
-------------------------
snap to road  Api - : October 29, 2017, 4:04 pm
ride_id :223
start: 
finish: 
lat_long_from_application :19.6884445,-99.2260144|19.6879144,-99.2242137|19.6871159,-99.2231618|19.6866984,-99.221157|19.6862201,-99.2190512|19.6842537,-99.2193789|19.6832464,-99.2196109|19.6820475,-99.2191807|19.6812154,-99.2177208|19.6800303,-99.2170978|19.6789339,-99.2155011|19.6779172,-99.2138811|19.6770789,-99.2132218|19.6764568,-99.2125045|19.6752886,-99.2112704|19.6743651,-99.210322|19.6719899,-99.2096734|19.6698178,-99.2093689|19.6684694,-99.209213|19.6661641,-99.208908|19.6637681,-99.2085619|19.6615834,-99.2080379|19.6604068,-99.2074914
waypoints: 
Snaptoroad api input: 19.6926183,-99.225801|19.6884445,-99.2260144|19.6879144,-99.2242137|19.6871159,-99.2231618|19.6866984,-99.221157|19.6862201,-99.2190512|19.6842537,-99.2193789|19.6832464,-99.2196109|19.6820475,-99.2191807|19.6812154,-99.2177208|19.6800303,-99.2170978|19.6789339,-99.2155011|19.6779172,-99.2138811|19.6770789,-99.2132218|19.6764568,-99.2125045|19.6752886,-99.2112704|19.6743651,-99.210322|19.6719899,-99.2096734|19.6698178,-99.2093689|19.6684694,-99.209213|19.6661641,-99.208908|19.6637681,-99.2085619|19.6615834,-99.2080379|19.6604068,-99.2074914|19.6610213,-99.2068976
Snaptoroad api output: 
distnce: 0
-------------------------
snap to road  Api - : October 29, 2017, 6:25 pm
ride_id :225
start: 
finish: 
lat_long_from_application :19.6632479,-99.206239|19.6637171,-99.2050502|19.6673682,-99.203428|19.6692116,-99.2029024|19.6701648,-99.2021751|19.6693248,-99.1995681|19.6721664,-99.2000807|19.6784808,-99.2010595|19.6816514,-99.2016491|19.6846083,-99.2020989|19.6857954,-99.2016304|19.6860046,-99.2046175|19.6866478,-99.2078793|19.6868938,-99.2101621|19.6871183,-99.2113675|19.6872891,-99.2125855|19.6873806,-99.2148289|19.6876055,-99.2163514|19.6878567,-99.2191944|19.6879679,-99.2202053|19.6880697,-99.2216801|19.6881952,-99.2230122|19.6884468,-99.2252374|19.6892297,-99.2258025|19.690331,-99.2257762|19.6912612,-99.2256383|19.6926828,-99.2251479
waypoints: 
Snaptoroad api input: 19.6615905,-99.2075476|19.6632479,-99.206239|19.6637171,-99.2050502|19.6673682,-99.203428|19.6692116,-99.2029024|19.6701648,-99.2021751|19.6693248,-99.1995681|19.6721664,-99.2000807|19.6784808,-99.2010595|19.6816514,-99.2016491|19.6846083,-99.2020989|19.6857954,-99.2016304|19.6860046,-99.2046175|19.6866478,-99.2078793|19.6868938,-99.2101621|19.6871183,-99.2113675|19.6872891,-99.2125855|19.6873806,-99.2148289|19.6876055,-99.2163514|19.6878567,-99.2191944|19.6879679,-99.2202053|19.6880697,-99.2216801|19.6881952,-99.2230122|19.6884468,-99.2252374|19.6892297,-99.2258025|19.690331,-99.2257762|19.6912612,-99.2256383|19.6926828,-99.2251479|19.6928889,-99.2253452
Snaptoroad api output: 
distnce: 0
-------------------------
snap to road  Api - : October 29, 2017, 11:07 pm
ride_id :226
start: 
finish: 
lat_long_from_application :19.6908607,-99.2260622|19.6898065,-99.2260109|19.6888874,-99.2259745|19.6880685,-99.2251289|19.6879204,-99.2237401|19.6877739,-99.2221072|19.6876591,-99.2205768|19.6876192,-99.2195531|19.68753,-99.2185408|19.6874477,-99.2170055|19.6873341,-99.2156127|19.6872471,-99.2145902|19.6871999,-99.2135615|19.6875116,-99.2146226
waypoints: 
Snaptoroad api input: 19.6922699,-99.2257248|19.6908607,-99.2260622|19.6898065,-99.2260109|19.6888874,-99.2259745|19.6880685,-99.2251289|19.6879204,-99.2237401|19.6877739,-99.2221072|19.6876591,-99.2205768|19.6876192,-99.2195531|19.68753,-99.2185408|19.6874477,-99.2170055|19.6873341,-99.2156127|19.6872471,-99.2145902|19.6871999,-99.2135615|19.6875116,-99.2146226|19.6876774,-99.2144717
Snaptoroad api output: 
distnce: 0
-------------------------
