snap to road  Api - : September 28, 2017, 1:57 pm
ride_id :35
start: 
finish: 
lat_long_from_application :19.6683433,-99.1764188|19.6674397,-99.176527|19.6677209,-99.1777814|19.6688777,-99.1779004|19.6697673,-99.1796415|19.6692052,-99.180723|19.669457,-99.1816531|19.6696132,-99.182648|19.6700845,-99.1851355|19.6701102,-99.1862062|19.6699538,-99.1874608|19.6697087,-99.1884234|19.6694274,-99.1894185|19.6692174,-99.1903703|19.6688013,-99.1913005|19.6683884,-99.1921658|19.6678298,-99.1929554|19.6680233,-99.1938964|19.6682569,-99.1956271|19.6688529,-99.1965789|19.6689981,-99.1975633|19.6511486,-99.1976282|19.649951,-99.1978553|19.65015,-99.1989154|19.6500157,-99.1979419|19.6512228,-99.1982015|19.6499741,-99.1978553|19.6511901,-99.1979419|19.6463923,-99.1969792|19.6637582,-99.1984827|19.6699609,-99.1992183|19.6695248,-99.2130872|19.6699454,-99.2165493|19.6692861,-99.2183995|19.6700222,-99.222219|19.6722695,-99.2268718|19.6726918,-99.2280621|19.6734564,-99.2302048|19.6727022,-99.2287547|19.672346,-99.2271748|19.6720422,-99.2259196|19.670785,-99.2226085|19.6698851,-99.2208556|19.6693268,-99.2182805|19.6693015,-99.2169821|19.6700412,-99.21603|19.6701326,-99.2064121|19.6681773,-99.2034588|19.6663085,-99.203978|19.6635149,-99.2050165|19.6629419,-99.2058603|19.6620194,-99.2063363|19.6609291,-99.2069422|19.6598159,-99.2073208|19.6523929,-99.2050165|19.6509708,-99.2049083|19.6495455,-99.2046379|19.6479014,-99.2036967|19.6466929,-99.2039131|19.6461608,-99.202615|19.6459791,-99.2003217|19.6422132,-99.1956271|19.6393154,-99.1951079|19.6306791,-99.1935611|19.6125975,-99.1907597|19.6116239,-99.1906623|19.6100519,-99.1901107|19.6734072,-99.2301771|19.4546508,-99.2202389|19.4351458,-99.2125246|19.4346813,-99.2117023|19.4338891,-99.2105339|19.6734072,-99.2301771|18.9480034,-99.2252054|18.9466207,-99.2252704|18.9449324,-99.2250107|18.943959,-99.2247077|18.9385665,-99.2235823|18.9357871,-99.2193841|18.935276,-99.2181074|19.653944,-99.2051332
waypoints: 
Snaptoroad api input: 19.6688344,-99.1767216|19.6683433,-99.1764188|19.6674397,-99.176527|19.6677209,-99.1777814|19.6688777,-99.1779004|19.6697673,-99.1796415|19.6692052,-99.180723|19.669457,-99.1816531|19.6696132,-99.182648|19.6700845,-99.1851355|19.6701102,-99.1862062|19.6699538,-99.1874608|19.6697087,-99.1884234|19.6694274,-99.1894185|19.6692174,-99.1903703|19.6688013,-99.1913005|19.6683884,-99.1921658|19.6678298,-99.1929554|19.6680233,-99.1938964|19.6682569,-99.1956271|19.6688529,-99.1965789|19.6689981,-99.1975633|19.6511486,-99.1976282|19.649951,-99.1978553|19.65015,-99.1989154|19.6500157,-99.1979419|19.6512228,-99.1982015|19.6499741,-99.1978553|19.6511901,-99.1979419|19.6463923,-99.1969792|19.6637582,-99.1984827|19.6699609,-99.1992183|19.6695248,-99.2130872|19.6699454,-99.2165493|19.6692861,-99.2183995|19.6700222,-99.222219|19.6722695,-99.2268718|19.6726918,-99.2280621|19.6734564,-99.2302048|19.6727022,-99.2287547|19.672346,-99.2271748|19.6720422,-99.2259196|19.670785,-99.2226085|19.6698851,-99.2208556|19.6693268,-99.2182805|19.6693015,-99.2169821|19.6700412,-99.21603|19.6701326,-99.2064121|19.6681773,-99.2034588|19.6663085,-99.203978|19.6635149,-99.2050165|19.6629419,-99.2058603|19.6620194,-99.2063363|19.6609291,-99.2069422|19.6598159,-99.2073208|19.6523929,-99.2050165|19.6509708,-99.2049083|19.6495455,-99.2046379|19.6479014,-99.2036967|19.6466929,-99.2039131|19.6461608,-99.202615|19.6459791,-99.2003217|19.6422132,-99.1956271|19.6393154,-99.1951079|19.6306791,-99.1935611|19.6125975,-99.1907597|19.6116239,-99.1906623|19.6100519,-99.1901107|19.6734072,-99.2301771|19.4546508,-99.2202389|19.4351458,-99.2125246|19.4346813,-99.2117023|19.4338891,-99.2105339|19.6734072,-99.2301771|18.9480034,-99.2252054|18.9466207,-99.2252704|18.9449324,-99.2250107|18.943959,-99.2247077|18.9385665,-99.2235823|18.9357871,-99.2193841|18.935276,-99.2181074|19.653944,-99.2051332|19.653647,-99.205189
Snaptoroad api output: 
distnce: 0
-------------------------
snap to road  Api - : September 28, 2017, 2:12 pm
ride_id :37
start: 
finish: 
lat_long_from_application :19.6500637,-99.2049281|19.6491737,-99.2047438|19.6481025,-99.2047118|19.6471813,-99.2045408|19.6460372,-99.204291|19.6448653,-99.2041618|19.643845,-99.2040842|19.6427606,-99.2037859|19.6418031,-99.2035795|19.6408281,-99.2034329|19.6397975,-99.2032012|19.6388794,-99.2031202|19.6378716,-99.2029916|19.6367302,-99.2029306|19.6359058,-99.2034043|19.6357828,-99.204414|19.6356347,-99.205399|19.635472,-99.2064187|19.6345671,-99.2063864|19.6336769,-99.2060901
waypoints: 
Snaptoroad api input: 19.6510063,-99.2049554|19.6500637,-99.2049281|19.6491737,-99.2047438|19.6481025,-99.2047118|19.6471813,-99.2045408|19.6460372,-99.204291|19.6448653,-99.2041618|19.643845,-99.2040842|19.6427606,-99.2037859|19.6418031,-99.2035795|19.6408281,-99.2034329|19.6397975,-99.2032012|19.6388794,-99.2031202|19.6378716,-99.2029916|19.6367302,-99.2029306|19.6359058,-99.2034043|19.6357828,-99.204414|19.6356347,-99.205399|19.635472,-99.2064187|19.6345671,-99.2063864|19.6336769,-99.2060901|19.6334358,-99.2059778
Snaptoroad api output: 
distnce: 0
-------------------------
